file: <<anmelden>><<name>>file<</name>><<passwort>>./Testlauf/Spieler.dokolounge<</passwort>><<WebClientInfo>>web-version egal<</WebClientInfo>><</anmelden>>
FreeDoko: <<TischBeitreten>><<name>>FreeDoko<</name>><<tisch>>0<</tisch>><</TischBeitreten>>
party open
FreeDoko: clear write buffer
FreeDoko: <<Refresh>>FreeDoko<</Refresh>>
FreeDoko: <<Refresh>>FreeDoko<</Refresh>>
FreeDoko: <<Refresh>>FreeDoko<</Refresh>>
FreeDoko: Startspieler: 1
FreeDoko: Hand:
0  club queen
1  spade queen
2  diamond queen
3  spade jack
4  diamond king
5  diamond king
6  diamond nine
7  club king
8  spade ten
9  spade king
a  heart king
b  unknown
FreeDoko: <<Refresh>>FreeDoko<</Refresh>>
FreeDoko: Spieltyp: normal
FreeDoko: card played = 1, unknown
FreeDoko: card played = 2, unknown
FreeDoko: card played = 3, unknown
FreeDoko: card played = 0, unknown
FreeDoko: trick full = 1, unknown, unknown, unknown, unknown, 1
FreeDoko: card played = 1, spade ace
FreeDoko: <<kartenlegen>><<tisch>>2<</tisch>><<name>>FreeDoko<</name>><<karte>>20<</karte>><</kartenlegen>>
FreeDoko: <<kartenlegen>><<tisch>>2<</tisch>><<name>>FreeDoko<</name>><<karte>>20<</karte>><</kartenlegen>>
FreeDoko: announcement = 2, no 120
FreeDoko: <<Ansage>><<Spieler>>FreeDoko<</Spieler>><<Ans>>Re keine 120<</Ans>><</Ansage>>
FreeDoko: card played = 2, spade king
FreeDoko: announcement = 2, no 120
FreeDoko: card played = 3, spade nine
FreeDoko: card played = 0, spade king
FreeDoko: trick full = 1, spade ace, spade king, spade nine, spade king, 1
FreeDoko: card played = 1, heart ace
FreeDoko: <<kartenlegen>><<tisch>>2<</tisch>><<name>>FreeDoko<</name>><<karte>>26<</karte>><</kartenlegen>>
FreeDoko: card played = 2, heart king
FreeDoko: card played = 3, heart nine
FreeDoko: card played = 0, diamond ace
FreeDoko: trick full = 1, heart ace, heart king, heart nine, diamond ace, 0
FreeDoko: card played = 0, club king
FreeDoko: card played = 1, heart jack
FreeDoko: <<kartenlegen>><<tisch>>2<</tisch>><<name>>FreeDoko<</name>><<karte>>38<</karte>><</kartenlegen>>
FreeDoko: card played = 2, club king
FreeDoko: card played = 3, club jack
FreeDoko: trick full = 0, club king, heart jack, club king, club jack, 3
FreeDoko: card played = 3, diamond jack
FreeDoko: card played = 0, heart jack
FreeDoko: card played = 1, diamond queen
FreeDoko: <<kartenlegen>><<tisch>>2<</tisch>><<name>>FreeDoko<</name>><<karte>>12<</karte>><</kartenlegen>>
FreeDoko: card played = 2, diamond nine
FreeDoko: trick full = 3, diamond jack, heart jack, diamond queen, diamond nine, 1
FreeDoko: card played = 1, spade nine
FreeDoko: <<kartenlegen>><<tisch>>2<</tisch>><<name>>FreeDoko<</name>><<karte>>23<</karte>><</kartenlegen>>
FreeDoko: card played = 2, spade ten
FreeDoko: card played = 3, club jack
FreeDoko: card played = 0, heart queen
FreeDoko: trick full = 1, spade nine, spade ten, club jack, heart queen, 0
FreeDoko: card played = 0, club ten
FreeDoko: card played = 1, heart ten
FreeDoko: <<kartenlegen>><<tisch>>2<</tisch>><<name>>FreeDoko<</name>><<karte>>8<</karte>><</kartenlegen>>
FreeDoko: card played = 2, diamond king
FreeDoko: card played = 3, heart king
FreeDoko: trick full = 0, club ten, heart ten, diamond king, heart king, 1
FreeDoko: card played = 1, heart nine
FreeDoko: <<kartenlegen>><<tisch>>2<</tisch>><<name>>FreeDoko<</name>><<karte>>46<</karte>><</kartenlegen>>
FreeDoko: card played = 2, spade jack
FreeDoko: card played = 3, heart queen
FreeDoko: card played = 0, diamond nine
FreeDoko: trick full = 1, heart nine, spade jack, heart queen, diamond nine, 3
FreeDoko: card played = 3, diamond ten
FreeDoko: card played = 0, spade jack
FreeDoko: card played = 1, heart ten
FreeDoko: <<kartenlegen>><<tisch>>2<</tisch>><<name>>FreeDoko<</name>><<karte>>32<</karte>><</kartenlegen>>
FreeDoko: card played = 2, diamond king
FreeDoko: trick full = 3, diamond ten, spade jack, heart ten, diamond king, 1
FreeDoko: card played = 1, spade ten
FreeDoko: <<kartenlegen>><<tisch>>2<</tisch>><<name>>FreeDoko<</name>><<karte>>45<</karte>><</kartenlegen>>
FreeDoko: card played = 2, club queen
FreeDoko: card played = 3, diamond ten
FreeDoko: card played = 0, club ten
FreeDoko: trick full = 1, spade ten, club queen, diamond ten, club ten, 2
FreeDoko: <<kartenlegen>><<tisch>>2<</tisch>><<name>>FreeDoko<</name>><<karte>>9<</karte>><</kartenlegen>>
FreeDoko: card played = 2, diamond queen
FreeDoko: card played = 3, spade queen
FreeDoko: card played = 0, diamond ace
FreeDoko: card played = 1, spade ace
FreeDoko: trick full = 2, diamond queen, spade queen, diamond ace, spade ace, 3
FreeDoko: card played = 3, club queen
FreeDoko: card played = 0, club ace
FreeDoko: card played = 1, heart ace
FreeDoko: <<kartenlegen>><<tisch>>2<</tisch>><<name>>FreeDoko<</name>><<karte>>45<</karte>><</kartenlegen>>
FreeDoko: card played = 2, spade queen
FreeDoko: trick full = 3, club queen, club ace, heart ace, spade queen, 3
FreeDoko: Spielergebnis:
seed = 0

gametype = normal
startplayer number = 1
soloplayer number = -
duty solo = 0
swines player number = -
hyperswines player number = -
teams = contra, contra, re, re
highest announcement re = no 120
highest announcement contra = no announcement
trick points = 41, 80, 33, 73
winnerteam = contra
points = 3
special points
{
won = contra, contra, -, -, 1
no 120 said = re, contra, -, 2, 2
contra won = contra, contra, -, -, 1
caught fox = re, re, 3, 0, 1
}
FreeDoko: clear write buffer
FreeDoko: <<Refresh>>FreeDoko<</Refresh>>
FreeDoko: <<Refresh>>FreeDoko<</Refresh>>
FreeDoko: Hand:
0  diamond queen
1  diamond ace
2  diamond ten
3  diamond king
4  club ace
5  club ten
6  club ten
7  club king
8  spade ace
9  spade king
a  heart ace
b  heart nine
FreeDoko: <<Meldung>>FreeDoko:Gesund<</Meldung>>
FreeDoko: <<Meldung>>FreeDoko:Gesund<</Meldung>>
FreeDoko: Spieltyp: normal
FreeDoko: card played = 3, heart ace
FreeDoko: card played = 0, heart nine
FreeDoko: card played = 1, heart king
FreeDoko: <<kartenlegen>><<tisch>>2<</tisch>><<name>>FreeDoko<</name>><<karte>>6<</karte>><</kartenlegen>>
FreeDoko: card played = 2, heart nine
FreeDoko: trick full = 3, heart ace, heart nine, heart king, heart nine, 3
FreeDoko: card played = 3, club nine
FreeDoko: card played = 0, club king
FreeDoko: card played = 1, club ace
FreeDoko: <<kartenlegen>><<tisch>>2<</tisch>><<name>>FreeDoko<</name>><<karte>>38<</karte>><</kartenlegen>>
FreeDoko: announcement = 2, no 120
FreeDoko: <<Ansage>><<Spieler>>FreeDoko<</Spieler>><<Ans>>Kontra keine 120<</Ans>><</Ansage>>
FreeDoko: card played = 2, club king
FreeDoko: trick full = 3, club nine, club king, club ace, club king, 1
FreeDoko: card played = 1, diamond king
FreeDoko: <<kartenlegen>><<tisch>>2<</tisch>><<name>>FreeDoko<</name>><<karte>>9<</karte>><</kartenlegen>>
FreeDoko: card played = 2, diamond queen
FreeDoko: card played = 3, heart queen
FreeDoko: card played = 0, diamond ace
FreeDoko: trick full = 1, diamond king, diamond queen, heart queen, diamond ace, 3
FreeDoko: card played = 3, spade ten
FreeDoko: card played = 0, spade ace
FreeDoko: card played = 1, spade nine
FreeDoko: <<kartenlegen>><<tisch>>2<</tisch>><<name>>FreeDoko<</name>><<karte>>44<</karte>><</kartenlegen>>
FreeDoko: card played = 2, spade king
FreeDoko: trick full = 3, spade ten, spade ace, spade nine, spade king, 0
FreeDoko: card played = 0, heart king
FreeDoko: card played = 1, spade queen
FreeDoko: <<kartenlegen>><<tisch>>2<</tisch>><<name>>FreeDoko<</name>><<karte>>25<</karte>><</kartenlegen>>
FreeDoko: card played = 2, heart ace
FreeDoko: card played = 3, spade nine
FreeDoko: trick full = 0, heart king, spade queen, heart ace, spade nine, 1
FreeDoko: card played = 1, club jack
FreeDoko: <<kartenlegen>><<tisch>>2<</tisch>><<name>>FreeDoko<</name>><<karte>>8<</karte>><</kartenlegen>>
FreeDoko: card played = 2, diamond king
FreeDoko: card played = 3, diamond queen
FreeDoko: card played = 0, diamond jack
FreeDoko: trick full = 1, club jack, diamond king, diamond queen, diamond jack, 3
FreeDoko: card played = 3, spade king
FreeDoko: card played = 0, spade ten
FreeDoko: card played = 1, club queen
FreeDoko: <<kartenlegen>><<tisch>>2<</tisch>><<name>>FreeDoko<</name>><<karte>>43<</karte>><</kartenlegen>>
FreeDoko: card played = 2, spade ace
FreeDoko: trick full = 3, spade king, spade ten, club queen, spade ace, 1
FreeDoko: card played = 1, club nine
FreeDoko: <<kartenlegen>><<tisch>>2<</tisch>><<name>>FreeDoko<</name>><<karte>>13<</karte>><</kartenlegen>>
FreeDoko: card played = 2, club ten
FreeDoko: card played = 3, heart jack
FreeDoko: card played = 0, diamond jack
FreeDoko: trick full = 1, club nine, club ten, heart jack, diamond jack, 3
FreeDoko: card played = 3, heart jack
FreeDoko: card played = 0, spade jack
FreeDoko: card played = 1, club queen
FreeDoko: <<kartenlegen>><<tisch>>2<</tisch>><<name>>FreeDoko<</name>><<karte>>11<</karte>><</kartenlegen>>
FreeDoko: card played = 2, diamond ten
FreeDoko: trick full = 3, heart jack, spade jack, club queen, diamond ten, 1
FreeDoko: card played = 1, diamond ten
FreeDoko: <<kartenlegen>><<tisch>>2<</tisch>><<name>>FreeDoko<</name>><<karte>>7<</karte>><</kartenlegen>>
FreeDoko: card played = 2, diamond ace
FreeDoko: card played = 3, spade jack
FreeDoko: card played = 0, club jack
FreeDoko: trick full = 1, diamond ten, diamond ace, spade jack, club jack, 0
FreeDoko: card played = 0, heart queen
FreeDoko: card played = 1, heart ten
FreeDoko: <<kartenlegen>><<tisch>>2<</tisch>><<name>>FreeDoko<</name>><<karte>>41<</karte>><</kartenlegen>>
FreeDoko: card played = 2, club ten
FreeDoko: card played = 3, diamond nine
FreeDoko: trick full = 0, heart queen, heart ten, club ten, diamond nine, 1
FreeDoko: card played = 1, heart ten
FreeDoko: <<kartenlegen>><<tisch>>2<</tisch>><<name>>FreeDoko<</name>><<karte>>13<</karte>><</kartenlegen>>
FreeDoko: card played = 2, club ace
FreeDoko: card played = 3, diamond nine
FreeDoko: card played = 0, spade queen
FreeDoko: trick full = 1, heart ten, club ace, diamond nine, spade queen, 1
FreeDoko: Spielergebnis:
seed = 0

gametype = marriage silent
startplayer number = 3
soloplayer number = 1
duty solo = 0
swines player number = -
hyperswines player number = -
teams = contra, re, contra, contra
highest announcement re = no announcement
highest announcement contra = no 120
trick points = 50, 129, 0, 61
winnerteam = re
points = 3
special points
{
won = re, re, -, -, 1
no 120 said = contra, re, -, 2, 2
solo = re, re, -, 1, 3
}
FreeDoko: clear write buffer
FreeDoko: <<Refresh>>FreeDoko<</Refresh>>
FreeDoko: <<Refresh>>FreeDoko<</Refresh>>
FreeDoko: Hand:
0  spade queen
1  club jack
2  heart jack
3  diamond jack
4  diamond ten
5  diamond king
6  club ten
7  club king
8  spade ten
9  spade king
a  spade king
b  heart king
FreeDoko: <<Meldung>>FreeDoko:Gesund<</Meldung>>
FreeDoko: <<Meldung>>FreeDoko:Gesund<</Meldung>>
FreeDoko: Spieltyp: normal
FreeDoko: card played = 0, club ace
FreeDoko: card played = 1, club nine
FreeDoko: <<kartenlegen>><<tisch>>2<</tisch>><<name>>FreeDoko<</name>><<karte>>38<</karte>><</kartenlegen>>
FreeDoko: card played = 2, club king
FreeDoko: card played = 3, club nine
FreeDoko: trick full = 0, club ace, club nine, club king, club nine, 0
FreeDoko: card played = 0, spade ace
FreeDoko: card played = 1, spade nine
FreeDoko: <<kartenlegen>><<tisch>>2<</tisch>><<name>>FreeDoko<</name>><<karte>>20<</karte>><</kartenlegen>>
FreeDoko: announcement = 2, no 120
FreeDoko: <<Ansage>><<Spieler>>FreeDoko<</Spieler>><<Ans>>Kontra keine 120<</Ans>><</Ansage>>
FreeDoko: card played = 2, spade king
FreeDoko: card played = 3, spade ten
FreeDoko: trick full = 0, spade ace, spade nine, spade king, spade ten, 0
FreeDoko: card played = 0, heart ace
FreeDoko: card played = 1, heart nine
FreeDoko: <<kartenlegen>><<tisch>>2<</tisch>><<name>>FreeDoko<</name>><<karte>>2<</karte>><</kartenlegen>>
FreeDoko: card played = 2, heart king
FreeDoko: card played = 3, heart nine
FreeDoko: trick full = 0, heart ace, heart nine, heart king, heart nine, 0
FreeDoko: card played = 0, diamond king
FreeDoko: card played = 1, diamond jack
FreeDoko: <<kartenlegen>><<tisch>>2<</tisch>><<name>>FreeDoko<</name>><<karte>>4<</karte>><</kartenlegen>>
FreeDoko: card played = 2, heart jack
FreeDoko: card played = 3, spade jack
FreeDoko: trick full = 0, diamond king, diamond jack, heart jack, spade jack, 3
FreeDoko: card played = 3, diamond nine
FreeDoko: card played = 0, heart jack
FreeDoko: card played = 1, spade jack
FreeDoko: <<kartenlegen>><<tisch>>2<</tisch>><<name>>FreeDoko<</name>><<karte>>40<</karte>><</kartenlegen>>
FreeDoko: card played = 2, club jack
FreeDoko: trick full = 3, diamond nine, heart jack, spade jack, club jack, 2
FreeDoko: <<kartenlegen>><<tisch>>2<</tisch>><<name>>FreeDoko<</name>><<karte>>44<</karte>><</kartenlegen>>
FreeDoko: card played = 2, spade king
FreeDoko: card played = 3, club jack
FreeDoko: card played = 0, spade nine
FreeDoko: card played = 1, spade ace
FreeDoko: trick full = 2, spade king, club jack, spade nine, spade ace, 3
FreeDoko: card played = 3, diamond queen
FreeDoko: card played = 0, spade queen
FreeDoko: card played = 1, heart ten
FreeDoko: <<kartenlegen>><<tisch>>2<</tisch>><<name>>FreeDoko<</name>><<karte>>32<</karte>><</kartenlegen>>
FreeDoko: card played = 2, diamond king
FreeDoko: trick full = 3, diamond queen, spade queen, heart ten, diamond king, 1
FreeDoko: card played = 1, club king
FreeDoko: <<kartenlegen>><<tisch>>2<</tisch>><<name>>FreeDoko<</name>><<karte>>41<</karte>><</kartenlegen>>
FreeDoko: card played = 2, club ten
FreeDoko: card played = 3, heart queen
FreeDoko: card played = 0, club queen
FreeDoko: trick full = 1, club king, club ten, heart queen, club queen, 0
FreeDoko: card played = 0, diamond queen
FreeDoko: card played = 1, heart queen
FreeDoko: <<kartenlegen>><<tisch>>2<</tisch>><<name>>FreeDoko<</name>><<karte>>21<</karte>><</kartenlegen>>
FreeDoko: card played = 2, spade queen
FreeDoko: card played = 3, diamond ten
FreeDoko: trick full = 0, diamond queen, heart queen, spade queen, diamond ten, 2
FreeDoko: <<kartenlegen>><<tisch>>2<</tisch>><<name>>FreeDoko<</name>><<karte>>47<</karte>><</kartenlegen>>
FreeDoko: card played = 2, spade ten
FreeDoko: card played = 3, club queen
FreeDoko: card played = 0, diamond ace
FreeDoko: card played = 1, diamond nine
FreeDoko: trick full = 2, spade ten, club queen, diamond ace, diamond nine, 3
FreeDoko: card played = 3, heart ace
FreeDoko: card played = 0, heart king
FreeDoko: card played = 1, club ace
FreeDoko: <<kartenlegen>><<tisch>>2<</tisch>><<name>>FreeDoko<</name>><<karte>>11<</karte>><</kartenlegen>>
FreeDoko: card played = 2, diamond ten
FreeDoko: trick full = 3, heart ace, heart king, club ace, diamond ten, 2
FreeDoko: <<kartenlegen>><<tisch>>2<</tisch>><<name>>FreeDoko<</name>><<karte>>10<</karte>><</kartenlegen>>
FreeDoko: card played = 2, diamond jack
FreeDoko: card played = 3, heart ten
FreeDoko: card played = 0, diamond ace
FreeDoko: card played = 1, club ten
FreeDoko: trick full = 2, diamond jack, heart ten, diamond ace, club ten, 3
FreeDoko: Spielergebnis:
seed = 0

gametype = normal
startplayer number = 0
soloplayer number = -
duty solo = 0
swines player number = -
hyperswines player number = -
teams = re, contra, contra, re
highest announcement re = no announcement
highest announcement contra = no 120
trick points = 75, 20, 61, 84
winnerteam = re
points = 4
special points
{
won = re, re, -, -, 1
no 120 said = contra, re, -, 2, 2
no 90 = re, re, -, -, 1
}
FreeDoko: clear write buffer
FreeDoko: <<Refresh>>FreeDoko<</Refresh>>
FreeDoko: <<Refresh>>FreeDoko<</Refresh>>
FreeDoko: Hand:
0  spade jack
1  diamond jack
2  diamond jack
3  diamond ace
4  club ace
5  club ten
6  club king
7  club king
8  spade ten
9  spade king
a  heart ace
b  heart nine
FreeDoko: <<Meldung>>FreeDoko:Gesund<</Meldung>>
FreeDoko: <<Meldung>>FreeDoko:Gesund<</Meldung>>
FreeDoko: Spieltyp: normal
FreeDoko: card played = 1, club ace
FreeDoko: <<kartenlegen>><<tisch>>2<</tisch>><<name>>FreeDoko<</name>><<karte>>14<</karte>><</kartenlegen>>
FreeDoko: card played = 2, club king
FreeDoko: card played = 3, club nine
FreeDoko: card played = 0, club ten
FreeDoko: trick full = 1, club ace, club king, club nine, club ten, 1
FreeDoko: card played = 1, spade ace
FreeDoko: <<kartenlegen>><<tisch>>2<</tisch>><<name>>FreeDoko<</name>><<karte>>44<</karte>><</kartenlegen>>
FreeDoko: announcement = 2, no 120
FreeDoko: <<Ansage>><<Spieler>>FreeDoko<</Spieler>><<Ans>>Kontra keine 120<</Ans>><</Ansage>>
FreeDoko: card played = 2, spade king
FreeDoko: card played = 3, spade nine
FreeDoko: card played = 0, spade nine
FreeDoko: trick full = 1, spade ace, spade king, spade nine, spade nine, 1
FreeDoko: card played = 1, club nine
FreeDoko: <<kartenlegen>><<tisch>>2<</tisch>><<name>>FreeDoko<</name>><<karte>>38<</karte>><</kartenlegen>>
FreeDoko: card played = 2, club king
FreeDoko: card played = 3, heart jack
FreeDoko: card played = 0, spade jack
FreeDoko: trick full = 1, club nine, club king, heart jack, spade jack, 0
FreeDoko: card played = 0, heart ace
FreeDoko: card played = 1, diamond ten
FreeDoko: <<kartenlegen>><<tisch>>2<</tisch>><<name>>FreeDoko<</name>><<karte>>30<</karte>><</kartenlegen>>
FreeDoko: card played = 2, heart nine
FreeDoko: card played = 3, heart king
FreeDoko: trick full = 0, heart ace, diamond ten, heart nine, heart king, 1
FreeDoko: card played = 1, spade king
FreeDoko: <<kartenlegen>><<tisch>>2<</tisch>><<name>>FreeDoko<</name>><<karte>>47<</karte>><</kartenlegen>>
FreeDoko: card played = 2, spade ten
FreeDoko: card played = 3, diamond queen
FreeDoko: card played = 0, spade ace
FreeDoko: trick full = 1, spade king, spade ten, diamond queen, spade ace, 3
FreeDoko: card played = 3, diamond nine
FreeDoko: card played = 0, heart jack
FreeDoko: card played = 1, diamond queen
FreeDoko: <<kartenlegen>><<tisch>>2<</tisch>><<name>>FreeDoko<</name>><<karte>>34<</karte>><</kartenlegen>>
FreeDoko: card played = 2, diamond jack
FreeDoko: trick full = 3, diamond nine, heart jack, diamond queen, diamond jack, 1
FreeDoko: card played = 1, spade ten
FreeDoko: <<kartenlegen>><<tisch>>2<</tisch>><<name>>FreeDoko<</name>><<karte>>10<</karte>><</kartenlegen>>
FreeDoko: card played = 2, diamond jack
FreeDoko: card played = 3, heart ten
FreeDoko: card played = 0, heart nine
FreeDoko: trick full = 1, spade ten, diamond jack, heart ten, heart nine, 3
FreeDoko: card played = 3, diamond nine
FreeDoko: card played = 0, club jack
FreeDoko: card played = 1, heart queen
FreeDoko: <<kartenlegen>><<tisch>>2<</tisch>><<name>>FreeDoko<</name>><<karte>>46<</karte>><</kartenlegen>>
FreeDoko: card played = 2, spade jack
FreeDoko: trick full = 3, diamond nine, club jack, heart queen, spade jack, 1
FreeDoko: card played = 1, diamond king
FreeDoko: <<kartenlegen>><<tisch>>2<</tisch>><<name>>FreeDoko<</name>><<karte>>31<</karte>><</kartenlegen>>
FreeDoko: card played = 2, diamond ace
FreeDoko: card played = 3, club queen
FreeDoko: card played = 0, diamond ace
FreeDoko: trick full = 1, diamond king, diamond ace, club queen, diamond ace, 3
FreeDoko: card played = 3, heart king
FreeDoko: card played = 0, club jack
FreeDoko: card played = 1, spade queen
FreeDoko: <<kartenlegen>><<tisch>>2<</tisch>><<name>>FreeDoko<</name>><<karte>>25<</karte>><</kartenlegen>>
FreeDoko: card played = 2, heart ace
FreeDoko: trick full = 3, heart king, club jack, spade queen, heart ace, 1
FreeDoko: card played = 1, heart ten
FreeDoko: <<kartenlegen>><<tisch>>2<</tisch>><<name>>FreeDoko<</name>><<karte>>17<</karte>><</kartenlegen>>
FreeDoko: card played = 2, club ace
FreeDoko: card played = 3, heart queen
FreeDoko: card played = 0, spade queen
FreeDoko: trick full = 1, heart ten, club ace, heart queen, spade queen, 1
FreeDoko: card played = 1, diamond king
FreeDoko: <<kartenlegen>><<tisch>>2<</tisch>><<name>>FreeDoko<</name>><<karte>>17<</karte>><</kartenlegen>>
FreeDoko: card played = 2, club ten
FreeDoko: card played = 3, diamond ten
FreeDoko: card played = 0, club queen
FreeDoko: trick full = 1, diamond king, club ten, diamond ten, club queen, 0
FreeDoko: Spielergebnis:
seed = 0

gametype = normal
startplayer number = 1
soloplayer number = -
duty solo = 0
swines player number = -
hyperswines player number = -
teams = re, contra, contra, re
highest announcement re = no announcement
highest announcement contra = no 120
trick points = 35, 126, 0, 79
winnerteam = contra
points = 3
special points
{
won = contra, contra, -, -, 1
no 120 said = contra, contra, -, 2, 2
contra won = contra, contra, -, -, 1
caught fox = re, re, 3, 2, 1
}
FreeDoko: clear write buffer
FreeDoko: <<Refresh>>FreeDoko<</Refresh>>
FreeDoko: <<Refresh>>FreeDoko<</Refresh>>
FreeDoko: Hand:
0  heart queen
1  heart jack
2  diamond jack
3  diamond king
4  diamond king
5  club king
6  club king
7  club nine
8  spade king
9  spade king
a  spade nine
b  heart ace
FreeDoko: <<Meldung>>FreeDoko:Gesund<</Meldung>>
FreeDoko: Spieltyp: normal
FreeDoko: <<kartenlegen>><<tisch>>2<</tisch>><<name>>FreeDoko<</name>><<karte>>1<</karte>><</kartenlegen>>
FreeDoko: card played = 2, heart ace
FreeDoko: card played = 3, heart nine
FreeDoko: card played = 0, heart king
FreeDoko: card played = 1, heart nine
FreeDoko: trick full = 2, heart ace, heart nine, heart king, heart nine, 2
FreeDoko: <<kartenlegen>><<tisch>>2<</tisch>><<name>>FreeDoko<</name>><<karte>>38<</karte>><</kartenlegen>>
FreeDoko: card played = 2, club king
FreeDoko: card played = 3, club ten
FreeDoko: card played = 0, club ace
FreeDoko: card played = 1, club nine
FreeDoko: trick full = 2, club king, club ten, club ace, club nine, 0
FreeDoko: card played = 0, club ace
FreeDoko: card played = 1, club ten
FreeDoko: <<kartenlegen>><<tisch>>2<</tisch>><<name>>FreeDoko<</name>><<karte>>18<</karte>><</kartenlegen>>
FreeDoko: card played = 2, club nine
FreeDoko: card played = 3, diamond ace
FreeDoko: trick full = 0, club ace, club ten, club nine, diamond ace, 3
FreeDoko: card played = 3, diamond jack
FreeDoko: card played = 0, club jack
FreeDoko: card played = 1, diamond nine
FreeDoko: <<kartenlegen>><<tisch>>2<</tisch>><<name>>FreeDoko<</name>><<karte>>32<</karte>><</kartenlegen>>
FreeDoko: card played = 2, diamond king
FreeDoko: trick full = 3, diamond jack, club jack, diamond nine, diamond king, 0
FreeDoko: card played = 0, heart king
FreeDoko: card played = 1, heart ace
FreeDoko: <<kartenlegen>><<tisch>>2<</tisch>><<name>>FreeDoko<</name>><<karte>>3<</karte>><</kartenlegen>>
FreeDoko: card played = 2, heart queen
FreeDoko: card played = 3, club queen
FreeDoko: trick full = 0, heart king, heart ace, heart queen, club queen, 3
FreeDoko: card played = 3, heart jack
FreeDoko: card played = 0, club jack
FreeDoko: card played = 1, diamond ten
FreeDoko: <<kartenlegen>><<tisch>>2<</tisch>><<name>>FreeDoko<</name>><<karte>>8<</karte>><</kartenlegen>>
FreeDoko: card played = 2, diamond king
FreeDoko: trick full = 3, heart jack, club jack, diamond ten, diamond king, 0
FreeDoko: card played = 0, heart ten
FreeDoko: card played = 1, diamond nine
FreeDoko: <<kartenlegen>><<tisch>>2<</tisch>><<name>>FreeDoko<</name>><<karte>>34<</karte>><</kartenlegen>>
FreeDoko: card played = 2, diamond jack
FreeDoko: card played = 3, spade jack
FreeDoko: trick full = 0, heart ten, diamond nine, diamond jack, spade jack, 0
FreeDoko: card played = 0, spade queen
FreeDoko: card played = 1, spade queen
FreeDoko: <<kartenlegen>><<tisch>>2<</tisch>><<name>>FreeDoko<</name>><<karte>>28<</karte>><</kartenlegen>>
FreeDoko: card played = 2, heart jack
FreeDoko: card played = 3, spade jack
FreeDoko: trick full = 0, spade queen, spade queen, heart jack, spade jack, 0
FreeDoko: card played = 0, diamond queen
FreeDoko: card played = 1, diamond queen
FreeDoko: <<kartenlegen>><<tisch>>2<</tisch>><<name>>FreeDoko<</name>><<karte>>14<</karte>><</kartenlegen>>
FreeDoko: card played = 2, club king
FreeDoko: card played = 3, club queen
FreeDoko: trick full = 0, diamond queen, diamond queen, club king, club queen, 3
FreeDoko: card played = 3, spade ten
FreeDoko: card played = 0, diamond ace
FreeDoko: card played = 1, spade nine
FreeDoko: <<kartenlegen>><<tisch>>2<</tisch>><<name>>FreeDoko<</name>><<karte>>44<</karte>><</kartenlegen>>
FreeDoko: card played = 2, spade king
FreeDoko: trick full = 3, spade ten, diamond ace, spade nine, spade king, 0
FreeDoko: card played = 0, heart queen
FreeDoko: card played = 1, spade ace
FreeDoko: <<kartenlegen>><<tisch>>2<</tisch>><<name>>FreeDoko<</name>><<karte>>48<</karte>><</kartenlegen>>
FreeDoko: card played = 2, spade nine
FreeDoko: card played = 3, heart ten
FreeDoko: trick full = 0, heart queen, spade ace, spade nine, heart ten, 3
FreeDoko: card played = 3, spade ten
FreeDoko: card played = 0, diamond ten
FreeDoko: card played = 1, spade ace
FreeDoko: <<kartenlegen>><<tisch>>2<</tisch>><<name>>FreeDoko<</name>><<karte>>20<</karte>><</kartenlegen>>
FreeDoko: card played = 2, spade king
FreeDoko: trick full = 3, spade ten, diamond ten, spade ace, spade king, 0
FreeDoko: Spielergebnis:
seed = 0

gametype = marriage silent
startplayer number = 2
soloplayer number = 3
duty solo = 0
swines player number = -
hyperswines player number = -
teams = contra, contra, contra, re
highest announcement re = no announcement
highest announcement contra = no announcement
trick points = 135, 0, 15, 90
winnerteam = contra
points = 1
special points
{
won = contra, contra, -, -, 1
}
FreeDoko: clear write buffer
FreeDoko: <<Refresh>>FreeDoko<</Refresh>>
FreeDoko: <<Refresh>>FreeDoko<</Refresh>>
FreeDoko: Hand:
0  heart ten
1  club queen
2  heart queen
3  spade jack
4  heart jack
5  diamond jack
6  diamond nine
7  club nine
8  spade ace
9  spade king
a  spade nine
b  heart king
FreeDoko: <<Meldung>>FreeDoko:Gesund<</Meldung>>
FreeDoko: <<Meldung>>FreeDoko:Gesund<</Meldung>>
FreeDoko: Spieltyp: normal
FreeDoko: card played = 3, heart ace
FreeDoko: card played = 0, diamond ace
FreeDoko: card played = 1, heart nine
FreeDoko: <<kartenlegen>><<tisch>>2<</tisch>><<name>>FreeDoko<</name>><<karte>>26<</karte>><</kartenlegen>>
FreeDoko: card played = 2, heart king
FreeDoko: trick full = 3, heart ace, diamond ace, heart nine, heart king, 0
FreeDoko: card played = 0, spade ace
FreeDoko: card played = 1, spade ten
FreeDoko: <<kartenlegen>><<tisch>>2<</tisch>><<name>>FreeDoko<</name>><<karte>>48<</karte>><</kartenlegen>>
FreeDoko: announcement = 2, no 120
FreeDoko: <<Ansage>><<Spieler>>FreeDoko<</Spieler>><<Ans>>Re keine 120<</Ans>><</Ansage>>
FreeDoko: card played = 2, spade nine
FreeDoko: card played = 3, spade nine
FreeDoko: trick full = 0, spade ace, spade ten, spade nine, spade nine, 0
FreeDoko: card played = 0, club ten
FreeDoko: card played = 1, club king
FreeDoko: <<kartenlegen>><<tisch>>2<</tisch>><<name>>FreeDoko<</name>><<karte>>18<</karte>><</kartenlegen>>
FreeDoko: card played = 2, club nine
FreeDoko: card played = 3, club king
FreeDoko: trick full = 0, club ten, club king, club nine, club king, 0
FreeDoko: card played = 0, club nine
FreeDoko: card played = 1, club ace
FreeDoko: <<kartenlegen>><<tisch>>2<</tisch>><<name>>FreeDoko<</name>><<karte>>34<</karte>><</kartenlegen>>
FreeDoko: card played = 2, diamond jack
FreeDoko: card played = 3, spade jack
FreeDoko: trick full = 0, club nine, club ace, diamond jack, spade jack, 3
FreeDoko: card played = 3, diamond jack
FreeDoko: card played = 0, heart jack
FreeDoko: card played = 1, diamond nine
FreeDoko: <<kartenlegen>><<tisch>>2<</tisch>><<name>>FreeDoko<</name>><<karte>>46<</karte>><</kartenlegen>>
FreeDoko: card played = 2, spade jack
FreeDoko: trick full = 3, diamond jack, heart jack, diamond nine, spade jack, 2
FreeDoko: <<kartenlegen>><<tisch>>2<</tisch>><<name>>FreeDoko<</name>><<karte>>12<</karte>><</kartenlegen>>
FreeDoko: card played = 2, diamond nine
FreeDoko: card played = 3, club jack
FreeDoko: card played = 0, heart queen
FreeDoko: card played = 1, diamond king
FreeDoko: trick full = 2, diamond nine, club jack, heart queen, diamond king, 0
FreeDoko: card played = 0, spade king
FreeDoko: card played = 1, diamond queen
FreeDoko: <<kartenlegen>><<tisch>>2<</tisch>><<name>>FreeDoko<</name>><<karte>>44<</karte>><</kartenlegen>>
FreeDoko: card played = 2, spade king
FreeDoko: card played = 3, club queen
FreeDoko: trick full = 0, spade king, diamond queen, spade king, club queen, 3
FreeDoko: card played = 3, club jack
FreeDoko: card played = 0, diamond king
FreeDoko: card played = 1, diamond queen
FreeDoko: <<kartenlegen>><<tisch>>2<</tisch>><<name>>FreeDoko<</name>><<karte>>3<</karte>><</kartenlegen>>
FreeDoko: card played = 2, heart queen
FreeDoko: trick full = 3, club jack, diamond king, diamond queen, heart queen, 2
FreeDoko: <<kartenlegen>><<tisch>>2<</tisch>><<name>>FreeDoko<</name>><<karte>>19<</karte>><</kartenlegen>>
FreeDoko: card played = 2, spade ace
FreeDoko: card played = 3, spade queen
FreeDoko: card played = 0, spade ten
FreeDoko: card played = 1, spade queen
FreeDoko: trick full = 2, spade ace, spade queen, spade ten, spade queen, 3
FreeDoko: card played = 3, heart nine
FreeDoko: card played = 0, heart ten
FreeDoko: card played = 1, heart king
FreeDoko: <<kartenlegen>><<tisch>>2<</tisch>><<name>>FreeDoko<</name>><<karte>>4<</karte>><</kartenlegen>>
FreeDoko: card played = 2, heart jack
FreeDoko: trick full = 3, heart nine, heart ten, heart king, heart jack, 0
FreeDoko: card played = 0, club ten
FreeDoko: card played = 1, club ace
FreeDoko: <<kartenlegen>><<tisch>>2<</tisch>><<name>>FreeDoko<</name>><<karte>>15<</karte>><</kartenlegen>>
FreeDoko: card played = 2, club queen
FreeDoko: card played = 3, diamond ace
FreeDoko: trick full = 0, club ten, club ace, club queen, diamond ace, 2
FreeDoko: <<kartenlegen>><<tisch>>2<</tisch>><<name>>FreeDoko<</name>><<karte>>29<</karte>><</kartenlegen>>
FreeDoko: card played = 2, heart ten
FreeDoko: card played = 3, diamond ten
FreeDoko: card played = 0, diamond ten
FreeDoko: card played = 1, heart ace
FreeDoko: trick full = 2, heart ten, diamond ten, diamond ten, heart ace, 2
FreeDoko: Spielergebnis:
seed = 0

gametype = normal
startplayer number = 3
soloplayer number = -
duty solo = 0
swines player number = -
hyperswines player number = -
teams = contra, contra, re, re
highest announcement re = no 120
highest announcement contra = no announcement
trick points = 90, 0, 94, 56
winnerteam = re
points = 4
special points
{
won = re, re, -, -, 1
no 120 said = re, re, -, 2, 2
Doppelkopf = re, re, 2, -, 1
}
FreeDoko: clear write buffer
FreeDoko: <<Refresh>>FreeDoko<</Refresh>>
FreeDoko: <<Refresh>>FreeDoko<</Refresh>>
FreeDoko: Hand:
0  heart queen
1  diamond queen
2  diamond queen
3  diamond ten
4  diamond nine
5  diamond nine
6  club king
7  spade ace
8  spade ten
9  spade king
a  spade nine
b  heart king
FreeDoko: <<Meldung>>FreeDoko:Gesund<</Meldung>>
FreeDoko: <<Meldung>>FreeDoko:Gesund<</Meldung>>
FreeDoko: Spieltyp: normal
FreeDoko: card played = 0, club ace
FreeDoko: card played = 1, club nine
FreeDoko: <<kartenlegen>><<tisch>>2<</tisch>><<name>>FreeDoko<</name>><<karte>>14<</karte>><</kartenlegen>>
FreeDoko: card played = 2, club king
FreeDoko: card played = 3, club ten
FreeDoko: trick full = 0, club ace, club nine, club king, club ten, 0
FreeDoko: card played = 0, diamond jack
FreeDoko: card played = 1, diamond king
FreeDoko: <<kartenlegen>><<tisch>>2<</tisch>><<name>>FreeDoko<</name>><<karte>>27<</karte>><</kartenlegen>>
FreeDoko: announcement = 2, no 120
FreeDoko: <<Ansage>><<Spieler>>FreeDoko<</Spieler>><<Ans>>Kontra keine 120<</Ans>><</Ansage>>
FreeDoko: card played = 2, heart queen
FreeDoko: card played = 3, spade queen
FreeDoko: trick full = 0, diamond jack, diamond king, heart queen, spade queen, 3
FreeDoko: card played = 3, heart ace
FreeDoko: card played = 0, heart nine
FreeDoko: card played = 1, heart nine
FreeDoko: <<kartenlegen>><<tisch>>2<</tisch>><<name>>FreeDoko<</name>><<karte>>2<</karte>><</kartenlegen>>
FreeDoko: card played = 2, heart king
FreeDoko: trick full = 3, heart ace, heart nine, heart nine, heart king, 3
FreeDoko: card played = 3, spade king
FreeDoko: card played = 0, spade nine
Ende der Datei erreicht
