file: <<anmelden>><<name>>file<</name>><<passwort>>./ins_Spiel/Schwein_schon_gespielt.dokolounge<</passwort>><<WebClientInfo>>web-version egal<</WebClientInfo>><</anmelden>>
Fd1: <<TischBeitreten>><<name>>Fd1<</name>><<tisch>>0<</tisch>><</TischBeitreten>>
party open
Fd1: clear write buffer
Fd1: <<Refresh>>Fd1<</Refresh>>
Fd1: <<Refresh>>Fd1<</Refresh>>
Fd1: Startspieler: 2
Fd1: Hand:
0  heart jack
1  diamond jack
2  diamond nine
3  unknown
4  unknown
5  unknown
6  unknown
7  unknown
8  unknown
9  unknown
a  unknown
b  unknown
Fd1: <<Refresh>>Fd1<</Refresh>>
Fd1: swines = 2
Fd1: Spieltyp: normal
Fd1: card played = 2, unknown
Fd1: card played = 3, unknown
Fd1: card played = 0, unknown
Fd1: card played = 1, unknown
Fd1: trick full = 2, unknown, unknown, unknown, unknown, 2
Fd1: card played = 2, unknown
Fd1: card played = 3, unknown
Fd1: card played = 0, unknown
Fd1: card played = 1, unknown
Fd1: trick full = 2, unknown, unknown, unknown, unknown, 2
Fd1: card played = 2, unknown
Fd1: card played = 3, unknown
Fd1: card played = 0, unknown
Fd1: card played = 1, unknown
Fd1: trick full = 2, unknown, unknown, unknown, unknown, 2
Fd1: card played = 2, unknown
Fd1: card played = 3, unknown
Fd1: card played = 0, unknown
Fd1: card played = 1, unknown
Fd1: trick full = 2, unknown, unknown, unknown, unknown, 2
Fd1: card played = 2, unknown
Fd1: card played = 3, unknown
Fd1: card played = 0, unknown
Fd1: card played = 1, unknown
Fd1: trick full = 2, unknown, unknown, unknown, unknown, 2
Fd1: card played = 2, unknown
Fd1: card played = 3, unknown
Fd1: card played = 0, unknown
Fd1: card played = 1, unknown
Fd1: trick full = 2, unknown, unknown, unknown, unknown, 2
Fd1: card played = 2, unknown
Fd1: card played = 3, unknown
Fd1: card played = 0, unknown
Fd1: card played = 1, unknown
Fd1: trick full = 2, unknown, unknown, unknown, unknown, 2
Fd1: card played = 2, unknown
Fd1: card played = 3, unknown
Fd1: card played = 0, unknown
Fd1: card played = 1, unknown
Fd1: trick full = 2, unknown, unknown, unknown, unknown, 2
Fd1: card played = 2, unknown
Fd1: card played = 3, unknown
Fd1: card played = 0, unknown
Fd1: card played = 1, unknown
Fd1: trick full = 2, unknown, unknown, unknown, unknown, 2
Fd1: card played = 2, diamond ace
Fd1: card played = 3, diamond queen
Fd1: <<kartenlegen>><<tisch>>1<</tisch>><<name>>Fd1<</name>><<karte>>36<</karte>><</kartenlegen>>
Fd1: <<kartenlegen>><<tisch>>1<</tisch>><<name>>Fd1<</name>><<karte>>36<</karte>><</kartenlegen>>
Fd1: card played = 0, diamond nine
Fd1: card played = 1, club ten
Fd1: trick full = 2, diamond ace, diamond queen, diamond nine, club ten, 2
Fd1: card played = 2, club nine
Fd1: card played = 3, heart queen
Fd1: <<kartenlegen>><<tisch>>1<</tisch>><<name>>Fd1<</name>><<karte>>10<</karte>><</kartenlegen>>
Fd1: card played = 0, diamond jack
Fd1: card played = 1, club ten
Fd1: trick full = 2, club nine, heart queen, diamond jack, club ten, 3
Fd1: card played = 3, spade king
Fd1: <<kartenlegen>><<tisch>>1<</tisch>><<name>>Fd1<</name>><<karte>>4<</karte>><</kartenlegen>>
Fd1: card played = 0, heart jack
Fd1: card played = 1, heart king
Fd1: card played = 2, club nine
Ende der Datei erreicht
