file: <<anmelden>><<name>>file<</name>><<passwort>>./Solo/Kreuz_Anfang.dokolounge<</passwort>><<WebClientInfo>>web-version egal<</WebClientInfo>><</anmelden>>
FreeDoko 4: <<TischBeitreten>><<name>>FreeDoko 4<</name>><<tisch>>0<</tisch>><</TischBeitreten>>
party open
FreeDoko 4: clear write buffer
FreeDoko 4: <<Refresh>>FreeDoko 4<</Refresh>>
FreeDoko 4: clear write buffer
FreeDoko 4: <<Refresh>>FreeDoko 4<</Refresh>>
FreeDoko 4: <<Refresh>>FreeDoko 4<</Refresh>>
FreeDoko 4: Hand:
0  club queen
1  club queen
2  spade queen
3  diamond queen
4  club jack
5  club jack
6  spade jack
7  diamond jack
8  club ace
9  club ace
a  club nine
b  heart ace
FreeDoko 4: <<Meldung>>FreeDoko 4:Hochzeit<</Meldung>>
FreeDoko 4: Spieltyp: solo club
FreeDoko 4: Solospieler: 3
FreeDoko 4: swines = 3
Ende der Datei erreicht
