file: <<anmelden>><<name>>file<</name>><<passwort>>./Hochzeit/nach_Vorbehalt.dokolounge<</passwort>><<WebClientInfo>>web-version egal<</WebClientInfo>><</anmelden>>
FreeDoko128: <<TischBeitreten>><<name>>FreeDoko128<</name>><<tisch>>0<</tisch>><</TischBeitreten>>
party open
FreeDoko128: clear write buffer
FreeDoko128: <<Refresh>>FreeDoko128<</Refresh>>
FreeDoko128: clear write buffer
FreeDoko128: <<Refresh>>FreeDoko128<</Refresh>>
FreeDoko128: <<Refresh>>FreeDoko128<</Refresh>>
FreeDoko128: Startspieler: 3
FreeDoko128: Hand:
0  spade queen
1  diamond queen
2  club jack
3  spade jack
4  diamond king
5  club ace
6  spade ten
7  heart ace
8  heart ace
9  heart king
FreeDoko128: <<Refresh>>FreeDoko128<</Refresh>>
FreeDoko128: swines = 1
FreeDoko128: Spieltyp: normal
FreeDoko128: card played = 3, club ten
FreeDoko128: <<kartenlegen>><<tisch>>7<</tisch>><<name>>FreeDoko128<</name>><<karte>>13<</karte>><</kartenlegen>>
FreeDoko128: card played = 0, club ace
FreeDoko128: card played = 1, club king
FreeDoko128: card played = 2, club ace
FreeDoko128: trick full = 3, club ten, club ace, club king, club ace, 0
FreeDoko128: <<kartenlegen>><<tisch>>7<</tisch>><<name>>FreeDoko128<</name>><<karte>>26<</karte>><</kartenlegen>>
FreeDoko128: card played = 0, spade ten
FreeDoko128: card played = 1, spade king
FreeDoko128: card played = 2, spade ten
FreeDoko128: card played = 3, spade ace
FreeDoko128: trick full = 0, spade ten, spade king, spade ten, spade ace, 3
FreeDoko128: card played = 3, heart king
FreeDoko128: <<kartenlegen>><<tisch>>7<</tisch>><<name>>FreeDoko128<</name>><<karte>>1<</karte>><</kartenlegen>>
FreeDoko128: card played = 0, heart king
FreeDoko128: announcement = 1, no 90
FreeDoko128: card played = 1, diamond ten
FreeDoko128: card played = 2, diamond jack
FreeDoko128: trick full = 3, heart king, heart king, diamond ten, diamond jack, 2
FreeDoko128: card played = 2, club king
FreeDoko128: card played = 3, heart ten
FreeDoko128: <<kartenlegen>><<tisch>>7<</tisch>><<name>>FreeDoko128<</name>><<karte>>8<</karte>><</kartenlegen>>
FreeDoko128: card played = 0, diamond king
FreeDoko128: card played = 1, club ten
FreeDoko128: trick full = 2, club king, heart ten, diamond king, club ten, 3
FreeDoko128: card played = 3, spade ace
FreeDoko128: <<kartenlegen>><<tisch>>7<</tisch>><<name>>FreeDoko128<</name>><<karte>>45<</karte>><</kartenlegen>>
FreeDoko128: card played = 0, spade queen
FreeDoko128: card played = 1, diamond ace
FreeDoko128: card played = 2, spade jack
FreeDoko128: trick full = 3, spade ace, spade queen, diamond ace, spade jack, 1
FreeDoko128: card played = 1, diamond jack
FreeDoko128: card played = 2, club queen
FreeDoko128: card played = 3, heart jack
FreeDoko128: <<kartenlegen>><<tisch>>7<</tisch>><<name>>FreeDoko128<</name>><<karte>>46<</karte>><</kartenlegen>>
FreeDoko128: card played = 0, spade jack
FreeDoko128: trick full = 1, diamond jack, club queen, heart jack, spade jack, 2
FreeDoko128: card played = 2, club jack
FreeDoko128: card played = 3, spade queen
FreeDoko128: <<kartenlegen>><<tisch>>7<</tisch>><<name>>FreeDoko128<</name>><<karte>>16<</karte>><</kartenlegen>>
FreeDoko128: card played = 0, club jack
FreeDoko128: card played = 1, diamond king
FreeDoko128: trick full = 2, club jack, spade queen, club jack, diamond king, 3
FreeDoko128: card played = 3, heart jack
FreeDoko128: <<kartenlegen>><<tisch>>7<</tisch>><<name>>FreeDoko128<</name>><<karte>>33<</karte>><</kartenlegen>>
FreeDoko128: card played = 0, diamond queen
FreeDoko128: card played = 1, heart queen
FreeDoko128: card played = 2, heart ten
FreeDoko128: trick full = 3, heart jack, diamond queen, heart queen, heart ten, 2
FreeDoko128: card played = 2, diamond ten
FreeDoko128: card played = 3, diamond queen
FreeDoko128: <<kartenlegen>><<tisch>>7<</tisch>><<name>>FreeDoko128<</name>><<karte>>1<</karte>><</kartenlegen>>
FreeDoko128: card played = 0, heart ace
FreeDoko128: card played = 1, heart queen
FreeDoko128: trick full = 2, diamond ten, diamond queen, heart ace, heart queen, 1
FreeDoko128: card played = 1, diamond ace
FreeDoko128: card played = 2, club queen
FreeDoko128: card played = 3, spade king
FreeDoko128: <<kartenlegen>><<tisch>>7<</tisch>><<name>>FreeDoko128<</name>><<karte>>25<</karte>><</kartenlegen>>
FreeDoko128: <<kartenlegen>><<tisch>>7<</tisch>><<name>>FreeDoko128<</name>><<karte>>25<</karte>><</kartenlegen>>
FreeDoko128: card played = 0, heart ace
FreeDoko128: announcement = 1, no 90
FreeDoko128: announcement = 1, no 90
FreeDoko128: trick full = 1, diamond ace, club queen, spade king, heart ace, 1
FreeDoko128: Spielergebnis:
seed = 0

gametype = marriage
startplayer number = 3
soloplayer number = 2
duty solo = 0
swines player number = 1
hyperswines player number = -
teams = re, contra, re, contra
highest announcement re = no announcement
highest announcement contra = no 90
trick points = 36, 83, 47, 74
winnerteam = contra
points = 6
special points
{
won = contra, contra, -, -, 1
no 120 said = contra, contra, -, 0, 2
no 90 = contra, contra, -, -, 1
no 90 said = contra, contra, -, 1, 1
contra won = contra, contra, -, -, 1
}
terminate called after throwing an instance of 'Offline'
