file: <<anmelden>><<name>>file<</name>><<passwort>>./Armut/Trumpf_zurückgeschoben.dokolounge<</passwort>><<WebClientInfo>>web-version egal<</WebClientInfo>><</anmelden>>
FreeDoko_5-12: <<TischBeitreten>><<name>>FreeDoko_5-12<</name>><<tisch>>0<</tisch>><</TischBeitreten>>
party open
FreeDoko_5-12: clear write buffer
FreeDoko_5-12: <<Refresh>>FreeDoko_5-12<</Refresh>>
FreeDoko_5-12: clear write buffer
FreeDoko_5-12: <<Refresh>>FreeDoko_5-12<</Refresh>>
FreeDoko_5-12: <<Refresh>>FreeDoko_5-12<</Refresh>>
FreeDoko_5-12: Hand:
0  heart queen
1  diamond queen
2  diamond ace
3  club ten
4  club king
5  spade ace
6  spade ten
7  spade king
8  heart ace
9  heart ace
a  heart nine
b  heart nine
FreeDoko_5-12: <<Meldung>>FreeDoko_5-12:Armut<</Meldung>>
FreeDoko_5-12: Hand:
0  diamond nine
1  club ten
2  club king
3  club nine
4  spade ace
5  spade ten
6  spade king
7  heart ace
8  heart ace
9  heart king
a  heart nine
b  heart nine
Ende der Datei erreicht
