file: <<anmelden>><<name>>file<</name>><<passwort>>./Schweine/Sau.dokolounge<</passwort>><<WebClientInfo>>web-version egal<</WebClientInfo>><</anmelden>>
FreeDoko 9: <<TischBeitreten>><<name>>FreeDoko 9<</name>><<tisch>>0<</tisch>><</TischBeitreten>>
party open
FreeDoko 9: clear write buffer
FreeDoko 9: <<Refresh>>FreeDoko 9<</Refresh>>
FreeDoko 9: <<Refresh>>FreeDoko 9<</Refresh>>
FreeDoko 9: <<Refresh>>FreeDoko 9<</Refresh>>
FreeDoko 9: Hand:
0  heart ten
1  heart queen
2  diamond queen
3  club jack
4  heart jack
5  diamond ten
6  diamond nine
7  diamond nine
8  club ace
9  spade ace
a  spade king
b  heart nine
FreeDoko 9: <<Meldung>>FreeDoko 9:Gesund<</Meldung>>
FreeDoko 9: Spieltyp: marriage
FreeDoko 9: Solospieler: 3
FreeDoko 9: swines = 1
FreeDoko 9: hyperswines = 0
FreeDoko 9: <<kartenlegen>><<tisch>>1<</tisch>><<name>>FreeDoko 9<</name>><<karte>>12<</karte>><</kartenlegen>>
FreeDoko 9: card played = 0, club ace
FreeDoko 9: card played = 1, club nine
FreeDoko 9: card played = 2, club nine
FreeDoko 9: card played = 3, club ten
FreeDoko 9: trick full = 0, club ace, club nine, club nine, club ten, 0
FreeDoko 9: <<kartenlegen>><<tisch>>1<</tisch>><<name>>FreeDoko 9<</name>><<karte>>19<</karte>><</kartenlegen>>
FreeDoko 9: card played = 0, spade ace
FreeDoko 9: card played = 1, spade nine
FreeDoko 9: card played = 2, spade king
FreeDoko 9: card played = 3, spade nine
FreeDoko 9: trick full = 0, spade ace, spade nine, spade king, spade nine, 0
FreeDoko 9: <<kartenlegen>><<tisch>>1<</tisch>><<name>>FreeDoko 9<</name>><<karte>>44<</karte>><</kartenlegen>>
FreeDoko 9: card played = 0, heart nine
FreeDoko 9: card played = 1, heart king
FreeDoko 9: card played = 2, heart ace
FreeDoko 9: card played = 3, heart nine
FreeDoko 9: trick full = 0, heart nine, heart king, heart ace, heart nine, 2
FreeDoko 9: card played = 2, heart king
FreeDoko 9: card played = 3, heart ace
FreeDoko 9: <<kartenlegen>><<tisch>>1<</tisch>><<name>>FreeDoko 9<</name>><<karte>>12<</karte>><</kartenlegen>>
FreeDoko 9: card played = 0, diamond ten
FreeDoko 9: card played = 1, diamond ace
FreeDoko 9: trick full = 2, heart king, heart ace, diamond ten, diamond ace, 1
FreeDoko 9: card played = 1, club ten
FreeDoko 9: card played = 2, club king
FreeDoko 9: card played = 3, club ace
FreeDoko 9: <<kartenlegen>><<tisch>>1<</tisch>><<name>>FreeDoko 9<</name>><<karte>>44<</karte>><</kartenlegen>>
FreeDoko 9: announcement = 0, no 120
FreeDoko 9: card played = 0, spade king
FreeDoko 9: trick full = 1, club ten, club king, club ace, spade king, 3
FreeDoko 9: card played = 3, club king
FreeDoko 9: <<kartenlegen>><<tisch>>1<</tisch>><<name>>FreeDoko 9<</name>><<karte>>4<</karte>><</kartenlegen>>
FreeDoko 9: card played = 0, heart queen
FreeDoko 9: card played = 1, heart ten
FreeDoko 9: card played = 2, spade ten
FreeDoko 9: trick full = 3, club king, heart queen, heart ten, spade ten, 1
FreeDoko 9: card played = 1, spade ace
FreeDoko 9: card played = 2, spade queen
FreeDoko 9: card played = 3, club queen
FreeDoko 9: <<kartenlegen>><<tisch>>1<</tisch>><<name>>FreeDoko 9<</name>><<karte>>4<</karte>><</kartenlegen>>
FreeDoko 9: card played = 0, heart jack
FreeDoko 9: trick full = 1, spade ace, spade queen, club queen, heart jack, 3
FreeDoko 9: card played = 3, diamond jack
FreeDoko 9: <<kartenlegen>><<tisch>>1<</tisch>><<name>>FreeDoko 9<</name>><<karte>>9<</karte>><</kartenlegen>>
FreeDoko 9: card played = 0, club jack
FreeDoko 9: card played = 1, diamond ace
FreeDoko 9: card played = 2, diamond queen
FreeDoko 9: trick full = 3, diamond jack, club jack, diamond ace, diamond queen, 1
FreeDoko 9: card played = 1, spade ten
Ende der Datei erreicht
