<?xml version="1.0" encoding="UTF-8" standalone="no"?>
<svg
   xmlns:osb="http://www.openswatchbook.org/uri/2009/osb"
   xmlns:dc="http://purl.org/dc/elements/1.1/"
   xmlns:cc="http://creativecommons.org/ns#"
   xmlns:rdf="http://www.w3.org/1999/02/22-rdf-syntax-ns#"
   xmlns:svg="http://www.w3.org/2000/svg"
   xmlns="http://www.w3.org/2000/svg"
   xmlns:xlink="http://www.w3.org/1999/xlink"
   version="1.1"
   id="svg3775"
   height="3.2480316in"
   width="2.3252952in">
  <defs
     id="defs3777">
    <linearGradient
       id="linearGradient36548"
       osb:paint="solid">
      <stop
         style="stop-color:#131f67;stop-opacity:1;"
         offset="0"
         id="stop36550" />
    </linearGradient>
    <pattern
       patternTransform="matrix(6.702973,-6.702973,6.702973,6.702973,-341.57108,-504.23132)"
       id="pattern28223"
       xlink:href="#pattern9340" />
    <pattern
       xlink:href="#pattern13666-7-345-531"
       id="pattern25905"
       patternTransform="matrix(5.7427879,0,0,5.7427879,2684.5377,-1465.9434)" />
    <pattern
       xlink:href="#pattern13567-7-536-839"
       id="pattern25903"
       patternTransform="matrix(6.7529281,0,0,6.7529281,2193.7475,-1402.6748)" />
    <pattern
       patternTransform="matrix(0.65828445,-0.74496825,1.1618517,1.0266597,-1349.1517,449.51167)"
       id="pattern23886"
       xlink:href="#pattern5776-448-58-6-656" />
    <pattern
       patternTransform="matrix(10,0,0,10,353.54443,-117.10793)"
       id="pattern19890"
       xlink:href="#pattern9751" />
    <pattern
       xlink:href="#pattern18993-128-737"
       id="pattern32158"
       patternTransform="matrix(10,0,0,10,-14.658703,1529.7928)" />
    <pattern
       patternTransform="matrix(10,0,0,10,-350.02934,1511.61)"
       id="pattern30282"
       xlink:href="#pattern18993-128-737" />
    <pattern
       xlink:href="#pattern18993-128-737"
       id="pattern28438"
       patternTransform="matrix(10,0,0,10,92.417464,1471.2039)" />
    <pattern
       xlink:href="#pattern9751"
       id="pattern18993"
       patternTransform="matrix(10,0,0,10,403.54444,1184.3206)" />
    <pattern
       patternTransform="matrix(6.702973,-6.702973,6.702973,6.702973,-280.96193,-221.38862)"
       id="pattern9340"
       xlink:href="#pattern6848-573" />
    <pattern
       patternTransform="matrix(10,0,0,10,300.68729,284.32063)"
       id="pattern9751"
       xlink:href="#Packedcircles-802-169" />
    <pattern
       patternUnits="userSpaceOnUse"
       width="16.771802"
       height="17.115901"
       patternTransform="translate(127.76526,536.84923)"
       id="pattern3800-931">
      <g
         id="g6610"
         transform="translate(-127.76526,-536.84923)">
        <path
           style="fill:#d40000;fill-opacity:1;stroke:none"
           id="path6612"
           d="m 139.93132,538.16935 -1.53091,4.51447 2.85103,3.82044 -4.7666,-0.0609 -2.75244,3.89206 -1.41502,-4.55212 -4.55212,-1.41502 3.89206,-2.75244 -0.0609,-4.76659 3.82044,2.85102 z"
           transform="matrix(0.62548599,0,0,0.62548599,47.849879,201.05756)" />
        <path
           transform="matrix(0.312743,0.54168676,-0.54168676,0.312743,392.29373,297.90436)"
           d="m 139.93132,538.16935 -1.53091,4.51447 2.85103,3.82044 -4.7666,-0.0609 -2.75244,3.89206 -1.41502,-4.55212 -4.55212,-1.41502 3.89206,-2.75244 -0.0609,-4.76659 3.82044,2.85102 z"
           id="path6614"
           style="fill:#d40000;fill-opacity:1;stroke:none" />
        <path
           transform="matrix(0.62548599,0,0,-0.62548599,47.849879,889.7568)"
           d="m 139.93132,538.16935 -1.53091,4.51447 2.85103,3.82044 -4.7666,-0.0609 -2.75244,3.89206 -1.41502,-4.55212 -4.55212,-1.41502 3.89206,-2.75244 -0.0609,-4.76659 3.82044,2.85102 z"
           id="path6616"
           style="fill:#d40000;fill-opacity:1;stroke:none" />
        <path
           style="fill:#d40000;fill-opacity:1;stroke:none"
           id="path6618"
           d="m 139.93132,538.16935 -1.53091,4.51447 2.85103,3.82044 -4.7666,-0.0609 -2.75244,3.89206 -1.41502,-4.55212 -4.55212,-1.41502 3.89206,-2.75244 -0.0609,-4.76659 3.82044,2.85102 z"
           transform="matrix(0.312743,-0.54168676,-0.54168676,-0.312743,392.29373,792.91)" />
      </g>
    </pattern>
    <pattern
       id="pattern13024-5-4-804"
       patternTransform="translate(-254.02376,74.426221)"
       height="110.74085"
       width="108.6184"
       patternUnits="userSpaceOnUse">
      <path
         style="fill:#131f67;fill-opacity:1;stroke:none"
         id="path6624"
         d="m -1016.046,25.720671 -10.7642,16.120541 7.1773,18.006272 -18.6578,-5.255841 -14.9071,12.390288 -0.767,-19.36883 -16.3904,-10.348653 18.1838,-6.714754 4.7773,-18.786107 12.0052,15.218884 z"
         transform="translate(1070.3552,-11.763587)" />
      <path
         transform="matrix(0.8660254,0.5,-0.5,0.8660254,946.33909,568.72784)"
         d="m -1016.046,25.720671 -10.7642,16.120541 7.1773,18.006272 -18.6578,-5.255841 -14.9071,12.390288 -0.767,-19.36883 -16.3904,-10.348653 18.1838,-6.714754 4.7773,-18.786107 12.0052,15.218884 z"
         id="path6626"
         style="fill:#131f67;fill-opacity:1;stroke:none" />
      <path
         transform="translate(1124.6644,-11.763587)"
         style="fill:#131f67;fill-opacity:1;stroke:none"
         id="path6628"
         d="m -1016.046,25.720671 -10.7642,16.120541 7.1773,18.006272 -18.6578,-5.255841 -14.9071,12.390288 -0.767,-19.36883 -16.3904,-10.348653 18.1838,-6.714754 4.7773,-18.786107 12.0052,15.218884 z" />
      <path
         transform="matrix(0.8660254,0.5,-0.5,0.8660254,1000.6483,568.72784)"
         d="m -1016.046,25.720671 -10.7642,16.120541 7.1773,18.006272 -18.6578,-5.255841 -14.9071,12.390288 -0.767,-19.36883 -16.3904,-10.348653 18.1838,-6.714754 4.7773,-18.786107 12.0052,15.218884 z"
         id="path6630"
         style="fill:#131f67;fill-opacity:1;stroke:none" />
    </pattern>
    <pattern
       patternUnits="userSpaceOnUse"
       width="1"
       height="1.73205080756"
       patternTransform="translate(0,0) scale(10,10)"
       id="Packedcircles-802-169">
      <circle
         style="fill:#131f67;stroke:none"
         cx="0"
         cy="0.5"
         r="0.5"
         id="circle9338" />
      <circle
         style="fill:#131f67;stroke:none"
         cx="1"
         cy="0.5"
         r="0.5"
         id="circle9340" />
      <circle
         style="fill:#131f67;stroke:none"
         cx="0.5"
         cy="1.36602540378"
         r="0.5"
         id="circle9342" />
      <circle
         style="fill:#131f67;stroke:none"
         cx="0.5"
         cy="-0.366025403784"
         r="0.5"
         id="circle9344" />
    </pattern>
    <pattern
       patternTransform="matrix(6.7529281,0,0,6.7529281,2313.7475,-1224.1034)"
       id="pattern13567-7-536-839"
       xlink:href="#pattern13478-8-350-619" />
    <pattern
       patternTransform="matrix(6.7529281,0,0,6.7529281,-726.78388,566.61867)"
       id="pattern13478-8-350-619"
       xlink:href="#pattern13460-77-791-314" />
    <pattern
       patternTransform="matrix(6.7529281,0,0,6.7529281,-128.21247,505.1901)"
       id="pattern13460-77-791-314"
       xlink:href="#pattern13341-4-182-749" />
    <pattern
       patternTransform="matrix(6.7529281,0,0,6.7529281,-35.355333,473.76153)"
       id="pattern13341-4-182-749"
       xlink:href="#pattern9873-446-2-196-79" />
    <pattern
       patternTransform="matrix(6.7529281,0,0,6.7529281,-158.59394,542.4519)"
       id="pattern9873-446-2-196-79"
       xlink:href="#Polkadots-med-999-98-931-450" />
    <pattern
       patternUnits="userSpaceOnUse"
       width="10"
       height="10"
       patternTransform="translate(0,0) scale(10,10)"
       id="Polkadots-med-999-98-931-450">
      <circle
         style="fill:#008000;stroke:none"
         cx="2.567"
         cy="0.810"
         r="0.15"
         id="circle18494" />
      <circle
         style="fill:#008000;stroke:none"
         cx="3.048"
         cy="2.33"
         r="0.15"
         id="circle18496" />
      <circle
         style="fill:#008000;stroke:none"
         cx="4.418"
         cy="2.415"
         r="0.15"
         id="circle18498" />
      <circle
         style="fill:#008000;stroke:none"
         cx="1.844"
         cy="3.029"
         r="0.15"
         id="circle18500" />
      <circle
         style="fill:#008000;stroke:none"
         cx="6.08"
         cy="1.363"
         r="0.15"
         id="circle18502" />
      <circle
         style="fill:#008000;stroke:none"
         cx="5.819"
         cy="4.413"
         r="0.15"
         id="circle18504" />
      <circle
         style="fill:#008000;stroke:none"
         cx="4.305"
         cy="4.048"
         r="0.15"
         id="circle18506" />
      <circle
         style="fill:#008000;stroke:none"
         cx="5.541"
         cy="3.045"
         r="0.15"
         id="circle18508" />
      <circle
         style="fill:#008000;stroke:none"
         cx="4.785"
         cy="5.527"
         r="0.15"
         id="circle18510" />
      <circle
         style="fill:#008000;stroke:none"
         cx="2.667"
         cy="5.184"
         r="0.15"
         id="circle18512" />
      <circle
         style="fill:#008000;stroke:none"
         cx="7.965"
         cy="1.448"
         r="0.15"
         id="circle18514" />
      <circle
         style="fill:#008000;stroke:none"
         cx="7.047"
         cy="5.049"
         r="0.15"
         id="circle18516" />
      <circle
         style="fill:#008000;stroke:none"
         cx="4.340"
         cy="0.895"
         r="0.15"
         id="circle18518" />
      <circle
         style="fill:#008000;stroke:none"
         cx="7.125"
         cy="0.340"
         r="0.15"
         id="circle18520" />
      <circle
         style="fill:#008000;stroke:none"
         cx="9.553"
         cy="1.049"
         r="0.15"
         id="circle18522" />
      <circle
         style="fill:#008000;stroke:none"
         cx="7.006"
         cy="2.689"
         r="0.15"
         id="circle18524" />
      <circle
         style="fill:#008000;stroke:none"
         cx="8.909"
         cy="2.689"
         r="0.15"
         id="circle18526" />
      <circle
         style="fill:#008000;stroke:none"
         cx="9.315"
         cy="4.407"
         r="0.15"
         id="circle18528" />
      <circle
         style="fill:#008000;stroke:none"
         cx="7.820"
         cy="3.870"
         r="0.15"
         id="circle18530" />
      <circle
         style="fill:#008000;stroke:none"
         cx="8.270"
         cy="5.948"
         r="0.15"
         id="circle18532" />
      <circle
         style="fill:#008000;stroke:none"
         cx="7.973"
         cy="7.428"
         r="0.15"
         id="circle18534" />
      <circle
         style="fill:#008000;stroke:none"
         cx="9.342"
         cy="8.072"
         r="0.15"
         id="circle18536" />
      <circle
         style="fill:#008000;stroke:none"
         cx="8.206"
         cy="9.315"
         r="0.15"
         id="circle18538" />
      <circle
         style="fill:#008000;stroke:none"
         cx="9.682"
         cy="9.475"
         r="0.15"
         id="circle18540" />
      <circle
         style="fill:#008000;stroke:none"
         cx="9.688"
         cy="6.186"
         r="0.15"
         id="circle18542" />
      <circle
         style="fill:#008000;stroke:none"
         cx="3.379"
         cy="6.296"
         r="0.15"
         id="circle18544" />
      <circle
         style="fill:#008000;stroke:none"
         cx="2.871"
         cy="8.204"
         r="0.15"
         id="circle18546" />
      <circle
         style="fill:#008000;stroke:none"
         cx="4.59"
         cy="8.719"
         r="0.15"
         id="circle18548" />
      <circle
         style="fill:#008000;stroke:none"
         cx="3.181"
         cy="9.671"
         r="0.15"
         id="circle18550" />
      <circle
         style="fill:#008000;stroke:none"
         cx="5.734"
         cy="7.315"
         r="0.15"
         id="circle18552" />
      <circle
         style="fill:#008000;stroke:none"
         cx="6.707"
         cy="6.513"
         r="0.15"
         id="circle18554" />
      <circle
         style="fill:#008000;stroke:none"
         cx="5.730"
         cy="9.670"
         r="0.15"
         id="circle18556" />
      <circle
         style="fill:#008000;stroke:none"
         cx="6.535"
         cy="8.373"
         r="0.15"
         id="circle18558" />
      <circle
         style="fill:#008000;stroke:none"
         cx="4.37"
         cy="7.154"
         r="0.15"
         id="circle18560" />
      <circle
         style="fill:#008000;stroke:none"
         cx="0.622"
         cy="7.25"
         r="0.15"
         id="circle18562" />
      <circle
         style="fill:#008000;stroke:none"
         cx="0.831"
         cy="5.679"
         r="0.15"
         id="circle18564" />
      <circle
         style="fill:#008000;stroke:none"
         cx="1.257"
         cy="8.519"
         r="0.15"
         id="circle18566" />
      <circle
         style="fill:#008000;stroke:none"
         cx="1.989"
         cy="6.877"
         r="0.15"
         id="circle18568" />
      <circle
         style="fill:#008000;stroke:none"
         cx="0.374"
         cy="3.181"
         r="0.15"
         id="circle18570" />
      <circle
         style="fill:#008000;stroke:none"
         cx="1.166"
         cy="1.664"
         r="0.15"
         id="circle18572" />
      <circle
         style="fill:#008000;stroke:none"
         cx="1.151"
         cy="0.093"
         r="0.15"
         id="circle18574" />
      <circle
         style="fill:#008000;stroke:none"
         cx="1.151"
         cy="10.093"
         r="0.15"
         id="circle18576" />
      <circle
         style="fill:#008000;stroke:none"
         cx="1.302"
         cy="4.451"
         r="0.15"
         id="circle18578" />
      <circle
         style="fill:#008000;stroke:none"
         cx="3.047"
         cy="3.763"
         r="0.15"
         id="circle18580" />
    </pattern>
    <pattern
       patternTransform="matrix(5.7427879,0,0,5.7427879,2804.5377,-1287.372)"
       id="pattern13666-7-345-531"
       xlink:href="#Polkadots-medwhite-7-481-242" />
    <pattern
       patternUnits="userSpaceOnUse"
       width="10"
       height="10"
       patternTransform="translate(0,0) scale(10,10)"
       id="Polkadots-medwhite-7-481-242">
      <circle
         style="fill:#ffffff;stroke:none"
         cx="2.567"
         cy="0.810"
         r="0.15"
         id="circle18584" />
      <circle
         style="fill:#ffffff;stroke:none"
         cx="3.048"
         cy="2.33"
         r="0.15"
         id="circle18586" />
      <circle
         style="fill:#ffffff;stroke:none"
         cx="4.418"
         cy="2.415"
         r="0.15"
         id="circle18588" />
      <circle
         style="fill:#ffffff;stroke:none"
         cx="1.844"
         cy="3.029"
         r="0.15"
         id="circle18590" />
      <circle
         style="fill:#ffffff;stroke:none"
         cx="6.08"
         cy="1.363"
         r="0.15"
         id="circle18592" />
      <circle
         style="fill:#ffffff;stroke:none"
         cx="5.819"
         cy="4.413"
         r="0.15"
         id="circle18594" />
      <circle
         style="fill:#ffffff;stroke:none"
         cx="4.305"
         cy="4.048"
         r="0.15"
         id="circle18596" />
      <circle
         style="fill:#ffffff;stroke:none"
         cx="5.541"
         cy="3.045"
         r="0.15"
         id="circle18598" />
      <circle
         style="fill:#ffffff;stroke:none"
         cx="4.785"
         cy="5.527"
         r="0.15"
         id="circle18600" />
      <circle
         style="fill:#ffffff;stroke:none"
         cx="2.667"
         cy="5.184"
         r="0.15"
         id="circle18602" />
      <circle
         style="fill:#ffffff;stroke:none"
         cx="7.965"
         cy="1.448"
         r="0.15"
         id="circle18604" />
      <circle
         style="fill:#ffffff;stroke:none"
         cx="7.047"
         cy="5.049"
         r="0.15"
         id="circle18606" />
      <circle
         style="fill:#ffffff;stroke:none"
         cx="4.340"
         cy="0.895"
         r="0.15"
         id="circle18608" />
      <circle
         style="fill:#ffffff;stroke:none"
         cx="7.125"
         cy="0.340"
         r="0.15"
         id="circle18610" />
      <circle
         style="fill:#ffffff;stroke:none"
         cx="9.553"
         cy="1.049"
         r="0.15"
         id="circle18612" />
      <circle
         style="fill:#ffffff;stroke:none"
         cx="7.006"
         cy="2.689"
         r="0.15"
         id="circle18614" />
      <circle
         style="fill:#ffffff;stroke:none"
         cx="8.909"
         cy="2.689"
         r="0.15"
         id="circle18616" />
      <circle
         style="fill:#ffffff;stroke:none"
         cx="9.315"
         cy="4.407"
         r="0.15"
         id="circle18618" />
      <circle
         style="fill:#ffffff;stroke:none"
         cx="7.820"
         cy="3.870"
         r="0.15"
         id="circle18620" />
      <circle
         style="fill:#ffffff;stroke:none"
         cx="8.270"
         cy="5.948"
         r="0.15"
         id="circle18622" />
      <circle
         style="fill:#ffffff;stroke:none"
         cx="7.973"
         cy="7.428"
         r="0.15"
         id="circle18624" />
      <circle
         style="fill:#ffffff;stroke:none"
         cx="9.342"
         cy="8.072"
         r="0.15"
         id="circle18626" />
      <circle
         style="fill:#ffffff;stroke:none"
         cx="8.206"
         cy="9.315"
         r="0.15"
         id="circle18628" />
      <circle
         style="fill:#ffffff;stroke:none"
         cx="9.682"
         cy="9.475"
         r="0.15"
         id="circle18630" />
      <circle
         style="fill:#ffffff;stroke:none"
         cx="9.688"
         cy="6.186"
         r="0.15"
         id="circle18632" />
      <circle
         style="fill:#ffffff;stroke:none"
         cx="3.379"
         cy="6.296"
         r="0.15"
         id="circle18634" />
      <circle
         style="fill:#ffffff;stroke:none"
         cx="2.871"
         cy="8.204"
         r="0.15"
         id="circle18636" />
      <circle
         style="fill:#ffffff;stroke:none"
         cx="4.59"
         cy="8.719"
         r="0.15"
         id="circle18638" />
      <circle
         style="fill:#ffffff;stroke:none"
         cx="3.181"
         cy="9.671"
         r="0.15"
         id="circle18640" />
      <circle
         style="fill:#ffffff;stroke:none"
         cx="5.734"
         cy="7.315"
         r="0.15"
         id="circle18642" />
      <circle
         style="fill:#ffffff;stroke:none"
         cx="6.707"
         cy="6.513"
         r="0.15"
         id="circle18644" />
      <circle
         style="fill:#ffffff;stroke:none"
         cx="5.730"
         cy="9.670"
         r="0.15"
         id="circle18646" />
      <circle
         style="fill:#ffffff;stroke:none"
         cx="6.535"
         cy="8.373"
         r="0.15"
         id="circle18648" />
      <circle
         style="fill:#ffffff;stroke:none"
         cx="4.37"
         cy="7.154"
         r="0.15"
         id="circle18650" />
      <circle
         style="fill:#ffffff;stroke:none"
         cx="0.622"
         cy="7.25"
         r="0.15"
         id="circle18652" />
      <circle
         style="fill:#ffffff;stroke:none"
         cx="0.831"
         cy="5.679"
         r="0.15"
         id="circle18654" />
      <circle
         style="fill:#ffffff;stroke:none"
         cx="1.257"
         cy="8.519"
         r="0.15"
         id="circle18656" />
      <circle
         style="fill:#ffffff;stroke:none"
         cx="1.989"
         cy="6.877"
         r="0.15"
         id="circle18658" />
      <circle
         style="fill:#ffffff;stroke:none"
         cx="0.374"
         cy="3.181"
         r="0.15"
         id="circle18660" />
      <circle
         style="fill:#ffffff;stroke:none"
         cx="1.166"
         cy="1.664"
         r="0.15"
         id="circle18662" />
      <circle
         style="fill:#ffffff;stroke:none"
         cx="1.151"
         cy="0.093"
         r="0.15"
         id="circle18664" />
      <circle
         style="fill:#ffffff;stroke:none"
         cx="1.151"
         cy="10.093"
         r="0.15"
         id="circle18666" />
      <circle
         style="fill:#ffffff;stroke:none"
         cx="1.302"
         cy="4.451"
         r="0.15"
         id="circle18668" />
      <circle
         style="fill:#ffffff;stroke:none"
         cx="3.047"
         cy="3.763"
         r="0.15"
         id="circle18670" />
    </pattern>
    <pattern
       patternTransform="matrix(0.65828445,-0.74496825,1.1618517,1.0266597,-1276.4207,833.36963)"
       id="pattern5776-448-58-6-656"
       xlink:href="#Wavy-637-926-4-329" />
    <pattern
       patternUnits="userSpaceOnUse"
       width="30.066020"
       height="5.1805778"
       id="Wavy-637-926-4-329">
      <path
         style="fill:#660080;stroke:none;"
         d="M 7.597,0.061 C 5.079,-0.187 2.656,0.302 -0.01,1.788 L -0.01,3.061 C 2.773,1.431 5.173,1.052 7.472,1.280 C 9.770,1.508 11.969,2.361 14.253,3.218 C 18.820,4.931 23.804,6.676 30.066,3.061 L 30.062,1.788 C 23.622,5.497 19.246,3.770 14.691,2.061 C 12.413,1.207 10.115,0.311 7.597,0.061 z "
         id="path23990" />
    </pattern>
    <pattern
       xlink:href="#Checkerboard-577"
       id="pattern6848-573"
       patternTransform="matrix(6.702973,-6.702973,6.702973,6.702973,53.903189,229.2031)" />
    <pattern
       id="Checkerboard-577"
       patternTransform="translate(0,0) scale(10,10)"
       height="2"
       width="2"
       patternUnits="userSpaceOnUse">
      <rect
         id="rect7900"
         height="1"
         width="1"
         y="0"
         x="0"
         style="fill:#131f67;stroke:none" />
      <rect
         id="rect7902"
         height="1"
         width="1"
         y="1"
         x="1"
         style="fill:#131f67;stroke:none" />
    </pattern>
    <pattern
       xlink:href="#pattern9751-8"
       id="pattern18993-128"
       patternTransform="matrix(10,0,0,10,403.54444,1184.3206)" />
    <pattern
       patternTransform="matrix(10,0,0,10,300.68729,284.32063)"
       id="pattern9751-8"
       xlink:href="#Packedcircles-802-169-241" />
    <pattern
       patternUnits="userSpaceOnUse"
       width="1"
       height="1.73205080756"
       patternTransform="translate(0,0) scale(10,10)"
       id="Packedcircles-802-169-241">
      <circle
         style="fill:#131f67;stroke:none"
         cx="0"
         cy="0.5"
         r="0.5"
         id="circle25493" />
      <circle
         style="fill:#131f67;stroke:none"
         cx="1"
         cy="0.5"
         r="0.5"
         id="circle25495" />
      <circle
         style="fill:#131f67;stroke:none"
         cx="0.5"
         cy="1.36602540378"
         r="0.5"
         id="circle25497" />
      <circle
         style="fill:#131f67;stroke:none"
         cx="0.5"
         cy="-0.366025403784"
         r="0.5"
         id="circle25499" />
    </pattern>
    <pattern
       xlink:href="#pattern9751-8-310"
       id="pattern18993-128-737"
       patternTransform="matrix(10,0,0,10,403.54444,1184.3206)" />
    <pattern
       patternTransform="matrix(10,0,0,10,300.68729,284.32063)"
       id="pattern9751-8-310"
       xlink:href="#Packedcircles-802-169-241-763" />
    <pattern
       patternUnits="userSpaceOnUse"
       width="1"
       height="1.73205080756"
       patternTransform="translate(0,0) scale(10,10)"
       id="Packedcircles-802-169-241-763">
      <circle
         style="fill:#ffffff;stroke:none"
         cx="0"
         cy="0.5"
         r="0.5"
         id="circle27282" />
      <circle
         style="fill:#ffffff;stroke:none"
         cx="1"
         cy="0.5"
         r="0.5"
         id="circle27284" />
      <circle
         style="fill:#ffffff;stroke:none"
         cx="0.5"
         cy="1.36602540378"
         r="0.5"
         id="circle27286" />
      <circle
         style="fill:#ffffff;stroke:none"
         cx="0.5"
         cy="-0.366025403784"
         r="0.5"
         id="circle27288" />
    </pattern>
    <pattern
       xlink:href="#pattern37102-72"
       id="pattern6992-716"
       patternTransform="matrix(0.70710678,-0.70710678,0.70710678,0.70710678,65.628976,277.55988)" />
    <pattern
       xlink:href="#pattern4989-928-357"
       id="pattern37102-72"
       patternTransform="matrix(0.70710678,-0.70710678,0.70710678,0.70710678,192.77183,268.98845)" />
    <pattern
       patternTransform="matrix(0.70710678,-0.70710678,0.70710678,0.70710678,269.91469,648.98845)"
       id="pattern4989-928-357"
       xlink:href="#pattern4529-212-255" />
    <pattern
       xlink:href="#pattern3800-931-582"
       id="pattern4529-212-255"
       patternTransform="matrix(0.70710678,-0.70710678,0.70710678,0.70710678,-15.329783,101.36982)" />
    <pattern
       patternUnits="userSpaceOnUse"
       width="16.771802"
       height="17.115901"
       patternTransform="translate(127.76526,536.84923)"
       id="pattern3800-931-582">
      <g
         id="g8417"
         transform="translate(-127.76526,-536.84923)">
        <path
           style="fill:#d40000;fill-opacity:1;stroke:none"
           id="path8419"
           d="m 139.93132,538.16935 -1.53091,4.51447 2.85103,3.82044 -4.7666,-0.0609 -2.75244,3.89206 -1.41502,-4.55212 -4.55212,-1.41502 3.89206,-2.75244 -0.0609,-4.76659 3.82044,2.85102 z"
           transform="matrix(0.62548599,0,0,0.62548599,47.849879,201.05756)" />
        <path
           transform="matrix(0.312743,0.54168676,-0.54168676,0.312743,392.29373,297.90436)"
           d="m 139.93132,538.16935 -1.53091,4.51447 2.85103,3.82044 -4.7666,-0.0609 -2.75244,3.89206 -1.41502,-4.55212 -4.55212,-1.41502 3.89206,-2.75244 -0.0609,-4.76659 3.82044,2.85102 z"
           id="path8421"
           style="fill:#d40000;fill-opacity:1;stroke:none" />
        <path
           transform="matrix(0.62548599,0,0,-0.62548599,47.849879,889.7568)"
           d="m 139.93132,538.16935 -1.53091,4.51447 2.85103,3.82044 -4.7666,-0.0609 -2.75244,3.89206 -1.41502,-4.55212 -4.55212,-1.41502 3.89206,-2.75244 -0.0609,-4.76659 3.82044,2.85102 z"
           id="path8423"
           style="fill:#d40000;fill-opacity:1;stroke:none" />
        <path
           style="fill:#d40000;fill-opacity:1;stroke:none"
           id="path8425"
           d="m 139.93132,538.16935 -1.53091,4.51447 2.85103,3.82044 -4.7666,-0.0609 -2.75244,3.89206 -1.41502,-4.55212 -4.55212,-1.41502 3.89206,-2.75244 -0.0609,-4.76659 3.82044,2.85102 z"
           transform="matrix(0.312743,-0.54168676,-0.54168676,-0.312743,392.29373,792.91)" />
      </g>
    </pattern>
    <pattern
       patternUnits="userSpaceOnUse"
       width="16.771802"
       height="17.115901"
       patternTransform="translate(127.76526,536.84923)"
       id="pattern3800-931-582-737">
      <g
         id="g10362"
         transform="translate(-127.76526,-536.84923)">
        <path
           style="fill:#d40000;fill-opacity:1;stroke:none"
           id="path10364"
           d="m 139.93132,538.16935 -1.53091,4.51447 2.85103,3.82044 -4.7666,-0.0609 -2.75244,3.89206 -1.41502,-4.55212 -4.55212,-1.41502 3.89206,-2.75244 -0.0609,-4.76659 3.82044,2.85102 z"
           transform="matrix(0.62548599,0,0,0.62548599,47.849879,201.05756)" />
        <path
           transform="matrix(0.312743,0.54168676,-0.54168676,0.312743,392.29373,297.90436)"
           d="m 139.93132,538.16935 -1.53091,4.51447 2.85103,3.82044 -4.7666,-0.0609 -2.75244,3.89206 -1.41502,-4.55212 -4.55212,-1.41502 3.89206,-2.75244 -0.0609,-4.76659 3.82044,2.85102 z"
           id="path10366"
           style="fill:#d40000;fill-opacity:1;stroke:none" />
        <path
           transform="matrix(0.62548599,0,0,-0.62548599,47.849879,889.7568)"
           d="m 139.93132,538.16935 -1.53091,4.51447 2.85103,3.82044 -4.7666,-0.0609 -2.75244,3.89206 -1.41502,-4.55212 -4.55212,-1.41502 3.89206,-2.75244 -0.0609,-4.76659 3.82044,2.85102 z"
           id="path10368"
           style="fill:#d40000;fill-opacity:1;stroke:none" />
        <path
           style="fill:#d40000;fill-opacity:1;stroke:none"
           id="path10370"
           d="m 139.93132,538.16935 -1.53091,4.51447 2.85103,3.82044 -4.7666,-0.0609 -2.75244,3.89206 -1.41502,-4.55212 -4.55212,-1.41502 3.89206,-2.75244 -0.0609,-4.76659 3.82044,2.85102 z"
           transform="matrix(0.312743,-0.54168676,-0.54168676,-0.312743,392.29373,792.91)" />
      </g>
    </pattern>
    <pattern
       patternTransform="matrix(10,0,0,10,353.54443,-117.10793)"
       id="pattern19890-164"
       xlink:href="#pattern9751-671" />
    <pattern
       patternTransform="matrix(10,0,0,10,300.68729,284.32063)"
       id="pattern9751-671"
       xlink:href="#Packedcircles-802-169-772" />
    <pattern
       patternUnits="userSpaceOnUse"
       width="1"
       height="1.73205080756"
       patternTransform="translate(0,0) scale(10,10)"
       id="Packedcircles-802-169-772">
      <circle
         style="fill:#131f67;stroke:none"
         cx="0"
         cy="0.5"
         r="0.5"
         id="circle20605" />
      <circle
         style="fill:#131f67;stroke:none"
         cx="1"
         cy="0.5"
         r="0.5"
         id="circle20607" />
      <circle
         style="fill:#131f67;stroke:none"
         cx="0.5"
         cy="1.36602540378"
         r="0.5"
         id="circle20609" />
      <circle
         style="fill:#131f67;stroke:none"
         cx="0.5"
         cy="-0.366025403784"
         r="0.5"
         id="circle20611" />
    </pattern>
    <pattern
       patternTransform="matrix(0.65828445,-0.74496825,1.1618517,1.0266597,-1307.308,-641.69461)"
       id="pattern23886-625"
       xlink:href="#pattern5776-448-58-6-656-736" />
    <pattern
       patternTransform="matrix(0.65828445,-0.74496825,1.1618517,1.0266597,-1276.4207,833.36963)"
       id="pattern5776-448-58-6-656-736"
       xlink:href="#Wavy-637-926-4-329-756" />
    <pattern
       patternUnits="userSpaceOnUse"
       width="30.066020"
       height="5.1805778"
       id="Wavy-637-926-4-329-756">
      <path
         style="fill:#000000;stroke:none;"
         d="M 7.597,0.061 C 5.079,-0.187 2.656,0.302 -0.01,1.788 L -0.01,3.061 C 2.773,1.431 5.173,1.052 7.472,1.280 C 9.770,1.508 11.969,2.361 14.253,3.218 C 18.820,4.931 23.804,6.676 30.066,3.061 L 30.062,1.788 C 23.622,5.497 19.246,3.770 14.691,2.061 C 12.413,1.207 10.115,0.311 7.597,0.061 z "
         id="path24616" />
    </pattern>
    <pattern
       patternTransform="matrix(6.702973,-6.702973,6.702973,6.702973,-398.71394,-581.37417)"
       id="pattern28223-645"
       xlink:href="#pattern9340-980" />
    <pattern
       patternTransform="matrix(6.702973,-6.702973,6.702973,6.702973,-280.96193,-221.38862)"
       id="pattern9340-980"
       xlink:href="#pattern6848-573-590" />
    <pattern
       xlink:href="#Checkerboard-577-549"
       id="pattern6848-573-590"
       patternTransform="matrix(6.702973,-6.702973,6.702973,6.702973,53.903189,229.2031)" />
    <pattern
       id="Checkerboard-577-549"
       patternTransform="translate(0,0) scale(10,10)"
       height="2"
       width="2"
       patternUnits="userSpaceOnUse">
      <rect
         id="rect29059"
         height="1"
         width="1"
         y="0"
         x="0"
         style="fill:#131f67;stroke:none" />
      <rect
         id="rect29061"
         height="1"
         width="1"
         y="1"
         x="1"
         style="fill:#131f67;stroke:none" />
    </pattern>
    <pattern
       xlink:href="#pattern18993-128-737-67-1"
       id="pattern28438-35-3"
       patternTransform="matrix(10,0,0,10,295.0455,1349.0824)" />
    <pattern
       xlink:href="#pattern9751-8-310-876-8"
       id="pattern18993-128-737-67-1"
       patternTransform="matrix(10,0,0,10,403.54444,1184.3206)" />
    <pattern
       patternTransform="matrix(10,0,0,10,300.68729,284.32063)"
       id="pattern9751-8-310-876-8"
       xlink:href="#Packedcircles-802-169-241-763-772-0" />
    <pattern
       patternUnits="userSpaceOnUse"
       width="1"
       height="1.73205080756"
       patternTransform="translate(0,0) scale(10,10)"
       id="Packedcircles-802-169-241-763-772-0">
      <circle
         style="fill:#ffffff;stroke:none"
         cx="0"
         cy="0.5"
         r="0.5"
         id="circle29103-0" />
      <circle
         style="fill:#ffffff;stroke:none"
         cx="1"
         cy="0.5"
         r="0.5"
         id="circle29105-2" />
      <circle
         style="fill:#ffffff;stroke:none"
         cx="0.5"
         cy="1.36602540378"
         r="0.5"
         id="circle29107-5" />
      <circle
         style="fill:#ffffff;stroke:none"
         cx="0.5"
         cy="-0.366025403784"
         r="0.5"
         id="circle29109-5" />
    </pattern>
    <pattern
       patternUnits="userSpaceOnUse"
       width="16.771802"
       height="17.115901"
       patternTransform="translate(127.76526,536.84923)"
       id="pattern3800-931-198">
      <g
         id="g39800"
         transform="translate(-127.76526,-536.84923)">
        <path
           style="fill:#d40000;fill-opacity:1;stroke:none"
           id="path39802"
           d="m 139.93132,538.16935 -1.53091,4.51447 2.85103,3.82044 -4.7666,-0.0609 -2.75244,3.89206 -1.41502,-4.55212 -4.55212,-1.41502 3.89206,-2.75244 -0.0609,-4.76659 3.82044,2.85102 z"
           transform="matrix(0.62548599,0,0,0.62548599,47.849879,201.05756)" />
        <path
           transform="matrix(0.312743,0.54168676,-0.54168676,0.312743,392.29373,297.90436)"
           d="m 139.93132,538.16935 -1.53091,4.51447 2.85103,3.82044 -4.7666,-0.0609 -2.75244,3.89206 -1.41502,-4.55212 -4.55212,-1.41502 3.89206,-2.75244 -0.0609,-4.76659 3.82044,2.85102 z"
           id="path39804"
           style="fill:#d40000;fill-opacity:1;stroke:none" />
        <path
           transform="matrix(0.62548599,0,0,-0.62548599,47.849879,889.7568)"
           d="m 139.93132,538.16935 -1.53091,4.51447 2.85103,3.82044 -4.7666,-0.0609 -2.75244,3.89206 -1.41502,-4.55212 -4.55212,-1.41502 3.89206,-2.75244 -0.0609,-4.76659 3.82044,2.85102 z"
           id="path39806"
           style="fill:#d40000;fill-opacity:1;stroke:none" />
        <path
           style="fill:#d40000;fill-opacity:1;stroke:none"
           id="path39808"
           d="m 139.93132,538.16935 -1.53091,4.51447 2.85103,3.82044 -4.7666,-0.0609 -2.75244,3.89206 -1.41502,-4.55212 -4.55212,-1.41502 3.89206,-2.75244 -0.0609,-4.76659 3.82044,2.85102 z"
           transform="matrix(0.312743,-0.54168676,-0.54168676,-0.312743,392.29373,792.91)" />
      </g>
    </pattern>
    <pattern
       patternUnits="userSpaceOnUse"
       width="16.771802"
       height="17.115901"
       patternTransform="translate(127.76526,536.84923)"
       id="pattern3800-931-8">
      <g
         id="g6610-7"
         transform="translate(-127.76526,-536.84923)">
        <path
           style="fill:#d40000;fill-opacity:1;stroke:none"
           id="path6612-5"
           d="m 139.93132,538.16935 -1.53091,4.51447 2.85103,3.82044 -4.7666,-0.0609 -2.75244,3.89206 -1.41502,-4.55212 -4.55212,-1.41502 3.89206,-2.75244 -0.0609,-4.76659 3.82044,2.85102 z"
           transform="matrix(0.62548599,0,0,0.62548599,47.849879,201.05756)" />
        <path
           transform="matrix(0.312743,0.54168676,-0.54168676,0.312743,392.29373,297.90436)"
           d="m 139.93132,538.16935 -1.53091,4.51447 2.85103,3.82044 -4.7666,-0.0609 -2.75244,3.89206 -1.41502,-4.55212 -4.55212,-1.41502 3.89206,-2.75244 -0.0609,-4.76659 3.82044,2.85102 z"
           id="path6614-3"
           style="fill:#d40000;fill-opacity:1;stroke:none" />
        <path
           transform="matrix(0.62548599,0,0,-0.62548599,47.849879,889.7568)"
           d="m 139.93132,538.16935 -1.53091,4.51447 2.85103,3.82044 -4.7666,-0.0609 -2.75244,3.89206 -1.41502,-4.55212 -4.55212,-1.41502 3.89206,-2.75244 -0.0609,-4.76659 3.82044,2.85102 z"
           id="path6616-6"
           style="fill:#d40000;fill-opacity:1;stroke:none" />
        <path
           style="fill:#d40000;fill-opacity:1;stroke:none"
           id="path6618-1"
           d="m 139.93132,538.16935 -1.53091,4.51447 2.85103,3.82044 -4.7666,-0.0609 -2.75244,3.89206 -1.41502,-4.55212 -4.55212,-1.41502 3.89206,-2.75244 -0.0609,-4.76659 3.82044,2.85102 z"
           transform="matrix(0.312743,-0.54168676,-0.54168676,-0.312743,392.29373,792.91)" />
      </g>
    </pattern>
    <pattern
       id="pattern13024-5-4-804-5"
       patternTransform="translate(-254.02376,74.426221)"
       height="110.74085"
       width="108.6184"
       patternUnits="userSpaceOnUse">
      <path
         style="fill:#131f67;fill-opacity:1;stroke:none"
         id="path6624-2"
         d="m -1016.046,25.720671 -10.7642,16.120541 7.1773,18.006272 -18.6578,-5.255841 -14.9071,12.390288 -0.767,-19.36883 -16.3904,-10.348653 18.1838,-6.714754 4.7773,-18.786107 12.0052,15.218884 z"
         transform="translate(1070.3552,-11.763587)" />
      <path
         transform="matrix(0.8660254,0.5,-0.5,0.8660254,946.33909,568.72784)"
         d="m -1016.046,25.720671 -10.7642,16.120541 7.1773,18.006272 -18.6578,-5.255841 -14.9071,12.390288 -0.767,-19.36883 -16.3904,-10.348653 18.1838,-6.714754 4.7773,-18.786107 12.0052,15.218884 z"
         id="path6626-0"
         style="fill:#131f67;fill-opacity:1;stroke:none" />
      <path
         transform="translate(1124.6644,-11.763587)"
         style="fill:#131f67;fill-opacity:1;stroke:none"
         id="path6628-5"
         d="m -1016.046,25.720671 -10.7642,16.120541 7.1773,18.006272 -18.6578,-5.255841 -14.9071,12.390288 -0.767,-19.36883 -16.3904,-10.348653 18.1838,-6.714754 4.7773,-18.786107 12.0052,15.218884 z" />
      <path
         transform="matrix(0.8660254,0.5,-0.5,0.8660254,1000.6483,568.72784)"
         d="m -1016.046,25.720671 -10.7642,16.120541 7.1773,18.006272 -18.6578,-5.255841 -14.9071,12.390288 -0.767,-19.36883 -16.3904,-10.348653 18.1838,-6.714754 4.7773,-18.786107 12.0052,15.218884 z"
         id="path6630-5"
         style="fill:#131f67;fill-opacity:1;stroke:none" />
    </pattern>
  </defs>
  <metadata
     id="metadata3780">
    <rdf:RDF>
      <cc:Work
         rdf:about="">
        <dc:format>image/svg+xml</dc:format>
        <dc:type
           rdf:resource="http://purl.org/dc/dcmitype/StillImage" />
        <dc:title></dc:title>
      </cc:Work>
    </rdf:RDF>
  </metadata>
  <g
     transform="translate(-1409.4105,-239.7811)"
     id="layer1">
    <g
       style="display:inline"
       id="g23876"
       transform="translate(1960.3529,-250.22128)">
      <g
         id="g23878">
        <rect
           rx="10.629921"
           ry="10.629921"
           y="490.50238"
           x="-550.44244"
           height="310.81104"
           width="222.22835"
           id="rect23880"
           style="fill:#ffffff;stroke:#000000;stroke-width:1;stroke-opacity:1" />
        <rect
           ry="0"
           y="502.58582"
           x="-537.85431"
           height="286.64417"
           width="197.05205"
           id="rect23882"
           style="fill:none;stroke:#000000;stroke-width:4.95238304;stroke-linecap:round;stroke-linejoin:miter;stroke-miterlimit:4;stroke-dasharray:none;stroke-opacity:1" />
        <rect
           y="506.45496"
           x="-533.46661"
           height="278.90585"
           width="188.27672"
           id="rect23884"
           style="fill:url(#pattern23886-625);fill-opacity:1;stroke:#000000;stroke-width:1;stroke-linecap:round;stroke-linejoin:miter;stroke-miterlimit:4;stroke-dasharray:none;stroke-dashoffset:0;stroke-opacity:1" />
      </g>
    </g>
  </g>
</svg>
